<?xml version="1.0" encoding="UTF-8" standalone="no"?>
<!-- Created with Inkscape (http://www.inkscape.org/) -->
<svg
   xmlns:dc="http://purl.org/dc/elements/1.1/"
   xmlns:cc="http://creativecommons.org/ns#"
   xmlns:rdf="http://www.w3.org/1999/02/22-rdf-syntax-ns#"
   xmlns:svg="http://www.w3.org/2000/svg"
   xmlns="http://www.w3.org/2000/svg"
   xmlns:sodipodi="http://sodipodi.sourceforge.net/DTD/sodipodi-0.dtd"
   xmlns:inkscape="http://www.inkscape.org/namespaces/inkscape"
   width="524.40942"
   height="744.09448"
   id="svg2"
   sodipodi:version="0.32"
   inkscape:version="0.46"
   version="1.0"
   sodipodi:docname="rdp_mda.svg"
   inkscape:output_extension="org.inkscape.output.svg.inkscape">
  <defs
     id="defs4">
    <marker
       inkscape:stockid="SquareL"
       orient="auto"
       refY="0"
       refX="0"
       id="SquareL"
       style="overflow:visible">
      <path
         id="path6593"
         d="M -5,-5 L -5,5 L 5,5 L 5,-5 L -5,-5 z"
         style="fill-rule:evenodd;stroke:#000000;stroke-width:1pt;marker-start:none"
         transform="scale(0.8,0.8)" />
    </marker>
    <marker
       inkscape:stockid="Arrow2Mend"
       orient="auto"
       refY="0"
       refX="0"
       id="Arrow2Mend"
       style="overflow:visible">
      <path
         id="path3284"
         style="font-size:12px;fill-rule:evenodd;stroke-width:0.625;stroke-linejoin:round"
         d="M 8.7185878,4.0337352 L -2.2072895,0.016013256 L 8.7185884,-4.0017078 C 6.97309,-1.6296469 6.9831476,1.6157441 8.7185878,4.0337352 z"
         transform="scale(-0.6,-0.6)" />
    </marker>
    <marker
       inkscape:stockid="Arrow1Lend"
       orient="auto"
       refY="0"
       refX="0"
       id="Arrow1Lend"
       style="overflow:visible">
      <path
         id="path3260"
         d="M 0,0 L 5,-5 L -12.5,0 L 5,5 L 0,0 z"
         style="fill-rule:evenodd;stroke:#000000;stroke-width:1pt;marker-start:none"
         transform="matrix(-0.8,0,0,-0.8,-10,0)" />
    </marker>
    <inkscape:perspective
       sodipodi:type="inkscape:persp3d"
       inkscape:vp_x="0 : 526.18109 : 1"
       inkscape:vp_y="0 : 1000 : 0"
       inkscape:vp_z="744.09448 : 526.18109 : 1"
       inkscape:persp3d-origin="372.04724 : 350.78739 : 1"
       id="perspective10" />
  </defs>
  <sodipodi:namedview
     id="base"
     pagecolor="#ffffff"
     bordercolor="#666666"
     borderopacity="1.0"
     gridtolerance="10000"
     guidetolerance="10"
     objecttolerance="10"
     inkscape:pageopacity="0.0"
     inkscape:pageshadow="2"
     inkscape:zoom="1.5857029"
     inkscape:cx="192.30798"
     inkscape:cy="317.60037"
     inkscape:document-units="px"
     inkscape:current-layer="g2513"
     showgrid="false"
     inkscape:window-width="1680"
     inkscape:window-height="1028"
     inkscape:window-x="1281"
     inkscape:window-y="0"
     showguides="true"
     inkscape:guide-bbox="true">
    <sodipodi:guide
       orientation="0,1"
       position="-95.874173,19.174835"
       id="guide8912" />
    <sodipodi:guide
       orientation="1,0"
       position="166.48768,457.84111"
       id="guide8914" />
    <sodipodi:guide
       orientation="0,1"
       position="151.98307,425.04809"
       id="guide2539" />
    <sodipodi:guide
       orientation="0,1"
       position="136.84783,204.32579"
       id="guide5441" />
    <sodipodi:guide
       orientation="1,0"
       position="727.75296,659.64436"
       id="guide5443" />
    <sodipodi:guide
       orientation="1,0"
       position="387.20998,467.93128"
       id="guide7868" />
    <sodipodi:guide
       orientation="1,0"
       position="232.07373,233.335"
       id="guide8397" />
  </sodipodi:namedview>
  <metadata
     id="metadata7">
    <rdf:RDF>
      <cc:Work
         rdf:about="">
        <dc:format>image/svg+xml</dc:format>
        <dc:type
           rdf:resource="http://purl.org/dc/dcmitype/StillImage" />
      </cc:Work>
    </rdf:RDF>
  </metadata>
  <g
     inkscape:label="Layer 1"
     inkscape:groupmode="layer"
     id="layer1">
    <g
       id="g2513"
       transform="matrix(0.6962941,0,0,0.6962941,-37.120226,10.057364)">
      <text
         xml:space="preserve"
         style="font-size:36.16047668px;font-style:normal;font-variant:normal;font-weight:normal;font-stretch:normal;fill:#000000;fill-opacity:1;stroke:none;stroke-width:1px;stroke-linecap:butt;stroke-linejoin:miter;stroke-opacity:1;font-family:Monaco;-inkscape-font-specification:Monaco"
         x="343.45261"
         y="29.392736"
         id="text3212"><tspan
           sodipodi:role="line"
           id="tspan3214"
           x="343.45261"
           y="29.392736"
           style="font-style:normal;font-variant:normal;font-weight:normal;font-stretch:normal;font-family:Liberation Mono;-inkscape-font-specification:Liberation Mono">MDA.c</tspan></text>
      <rect
         inkscape:connector-avoid="true"
         style="fill:#000000;stroke-width:2;stroke-miterlimit:4;stroke-dasharray:none"
         id="rect3232"
         width="60.879326"
         height="15.219831"
         x="356.49512"
         y="80.750076" />
      <rect
         inkscape:connector-avoid="true"
         y="80.750076"
         x="356.49512"
         height="15.219831"
         width="60.879326"
         id="rect3238"
         style="fill:#000000;stroke-width:2;stroke-miterlimit:4;stroke-dasharray:none" />
      <path
         inkscape:connection-end="#path2383"
         inkscape:connection-start="#rect3238"
         inkscape:connector-type="polyline"
         id="path8778"
         d="M 386.93479,95.969908 L 386.93484,134.71869"
         style="fill:none;fill-rule:evenodd;stroke:#000000;stroke-width:3.0133729px;stroke-linecap:butt;stroke-linejoin:miter;marker-end:url(#Arrow2Mend);stroke-opacity:1" />
      <text
         id="text8808"
         y="124.19491"
         x="346.74307"
         style="font-size:18.08023834px;font-style:normal;font-variant:normal;font-weight:normal;font-stretch:normal;fill:#000000;fill-opacity:1;stroke:none;stroke-width:1px;stroke-linecap:butt;stroke-linejoin:miter;stroke-opacity:1;font-family:Sans;-inkscape-font-specification:Sans"
         xml:space="preserve"><tspan
           y="124.19491"
           x="346.74307"
           id="tspan8810"
           sodipodi:role="line">T0</tspan></text>
      <path
         transform="matrix(0.9312163,0,0,0.9312163,623.98386,102.43673)"
         d="M -217.1828,73.042091 A 37.375645,37.375645 0 1 1 -291.93409,73.042091 A 37.375645,37.375645 0 1 1 -217.1828,73.042091 z"
         sodipodi:ry="37.375645"
         sodipodi:rx="37.375645"
         sodipodi:cy="73.042091"
         sodipodi:cx="-254.55844"
         id="path2383"
         style="fill:none;fill-rule:evenodd;stroke:#000000;stroke-width:2;stroke-linecap:butt;stroke-linejoin:miter;stroke-miterlimit:4;stroke-dasharray:none;stroke-opacity:1"
         sodipodi:type="arc" />
      <path
         sodipodi:type="arc"
         style="fill:none;fill-rule:evenodd;stroke:#000000;stroke-width:2;stroke-linecap:butt;stroke-linejoin:miter;stroke-miterlimit:4;stroke-dasharray:none;stroke-opacity:1"
         id="path3179"
         sodipodi:cx="-254.55844"
         sodipodi:cy="73.042091"
         sodipodi:rx="37.375645"
         sodipodi:ry="37.375645"
         d="M -217.1828,73.042091 A 37.375645,37.375645 0 1 1 -291.93409,73.042091 A 37.375645,37.375645 0 1 1 -217.1828,73.042091 z"
         transform="matrix(0.9312163,0,0,0.9312163,623.98386,235.5812)" />
      <path
         transform="matrix(0.9312163,0,0,0.9312163,623.98386,375.552)"
         d="M -217.1828,73.042091 A 37.375645,37.375645 0 1 1 -291.93409,73.042091 A 37.375645,37.375645 0 1 1 -217.1828,73.042091 z"
         sodipodi:ry="37.375645"
         sodipodi:rx="37.375645"
         sodipodi:cy="73.042091"
         sodipodi:cx="-254.55844"
         id="path3198"
         style="fill:none;fill-rule:evenodd;stroke:#000000;stroke-width:2;stroke-linecap:butt;stroke-linejoin:miter;stroke-miterlimit:4;stroke-dasharray:none;stroke-opacity:1"
         sodipodi:type="arc" />
      <path
         sodipodi:type="arc"
         style="fill:none;fill-rule:evenodd;stroke:#000000;stroke-width:2;stroke-linecap:butt;stroke-linejoin:miter;stroke-miterlimit:4;stroke-dasharray:none;stroke-opacity:1"
         id="path3204"
         sodipodi:cx="-254.55844"
         sodipodi:cy="73.042091"
         sodipodi:rx="37.375645"
         sodipodi:ry="37.375645"
         d="M -217.1828,73.042091 A 37.375645,37.375645 0 1 1 -291.93409,73.042091 A 37.375645,37.375645 0 1 1 -217.1828,73.042091 z"
         transform="matrix(0.9312163,0,0,0.9312163,623.98386,511.16405)" />
      <path
         transform="matrix(3.0133729,0,0,3.0133729,784.17237,-241.41823)"
         sodipodi:type="arc"
         style="fill:#000000;stroke-width:2;stroke-miterlimit:4;stroke-dasharray:none"
         id="path3220"
         sodipodi:cx="-131.82491"
         sodipodi:cy="136.6817"
         sodipodi:rx="3.5355339"
         sodipodi:ry="3.5355339"
         d="M -128.28937,136.6817 A 3.5355339,3.5355339 0 1 1 -135.36044,136.6817 A 3.5355339,3.5355339 0 1 1 -128.28937,136.6817 z" />
      <text
         xml:space="preserve"
         style="font-size:30.13372993px;font-style:normal;font-variant:normal;font-weight:normal;font-stretch:normal;fill:#000000;fill-opacity:1;stroke:none;stroke-width:1px;stroke-linecap:butt;stroke-linejoin:miter;stroke-opacity:1;font-family:Monaco;-inkscape-font-specification:Monaco"
         x="427.24704"
         y="308.32172"
         id="text8764"><tspan
           sodipodi:role="line"
           id="tspan8766"
           x="427.24704"
           y="308.32172"
           style="font-size:18.08023834px;font-style:normal;font-variant:normal;font-weight:normal;font-stretch:normal;font-family:Sans;-inkscape-font-specification:Terminal">openSocket() - mode serveur</tspan></text>
      <path
         inkscape:connection-end="#path3179"
         inkscape:connection-start="#path2383"
         inkscape:connector-type="polyline"
         id="path8782"
         d="M 386.93489,206.19074 L 386.93489,267.86316"
         style="fill:none;fill-rule:evenodd;stroke:#000000;stroke-width:3.0133729px;stroke-linecap:butt;stroke-linejoin:miter;marker-end:url(#Arrow2Mend);stroke-opacity:1" />
      <path
         inkscape:connection-end="#path3198"
         inkscape:connection-start="#path3179"
         inkscape:connector-type="polyline"
         id="path8788"
         d="M 386.93489,339.33521 L 386.93489,407.83396"
         style="fill:none;fill-rule:evenodd;stroke:#000000;stroke-width:3.0133729px;stroke-linecap:butt;stroke-linejoin:miter;marker-end:url(#Arrow2Mend);stroke-opacity:1" />
      <path
         inkscape:connection-end="#path3204"
         inkscape:connection-start="#path3198"
         inkscape:connector-type="polyline"
         id="path8794"
         d="M 386.93489,479.30601 L 386.93489,543.44601"
         style="fill:none;fill-rule:evenodd;stroke:#000000;stroke-width:3.01300001;stroke-linecap:butt;stroke-linejoin:miter;marker-end:url(#Arrow2Mend);stroke-miterlimit:4;stroke-dasharray:none;stroke-opacity:1" />
      <text
         id="text8796"
         y="172.56964"
         x="428.59079"
         style="font-size:18.08023834px;font-style:normal;font-variant:normal;font-weight:normal;font-stretch:normal;fill:#000000;fill-opacity:1;stroke:none;stroke-width:1px;stroke-linecap:butt;stroke-linejoin:miter;stroke-opacity:1;font-family:Sans;-inkscape-font-specification:Sans"
         xml:space="preserve"><tspan
           y="172.56964"
           x="428.59079"
           id="tspan8798"
           sodipodi:role="line">main()</tspan></text>
      <text
         id="text8816"
         y="378.9386"
         x="346.74307"
         style="font-size:18.08023834px;font-style:normal;font-variant:normal;font-weight:normal;font-stretch:normal;fill:#000000;fill-opacity:1;stroke:none;stroke-width:1px;stroke-linecap:butt;stroke-linejoin:miter;stroke-opacity:1;font-family:Sans;-inkscape-font-specification:Sans"
         xml:space="preserve"><tspan
           y="378.9386"
           x="346.74307"
           id="tspan8818"
           sodipodi:role="line">T2</tspan></text>
      <text
         xml:space="preserve"
         style="font-size:18.08023834px;font-style:normal;font-variant:normal;font-weight:normal;font-stretch:normal;fill:#000000;fill-opacity:1;stroke:none;stroke-width:1px;stroke-linecap:butt;stroke-linejoin:miter;stroke-opacity:1;font-family:Sans;-inkscape-font-specification:Sans"
         x="346.74307"
         y="514.03088"
         id="text8824"><tspan
           sodipodi:role="line"
           id="tspan8826"
           x="346.74307"
           y="514.03088">T3</tspan></text>
      <text
         id="text8832"
         y="448.85339"
         x="427.24704"
         style="font-size:18.08023834px;font-style:normal;font-variant:normal;font-weight:normal;font-stretch:normal;fill:#000000;fill-opacity:1;stroke:none;stroke-width:1px;stroke-linecap:butt;stroke-linejoin:miter;stroke-opacity:1;font-family:Sans;-inkscape-font-specification:Sans"
         xml:space="preserve"><tspan
           id="tspan8854"
           y="448.85339"
           x="427.24704"
           sodipodi:role="line">Ecoute en boucle</tspan></text>
      <text
         id="text8836"
         y="585.78638"
         x="428.59079"
         style="font-size:18.08023834px;font-style:normal;font-variant:normal;font-weight:normal;font-stretch:normal;fill:#000000;fill-opacity:1;stroke:none;stroke-width:1px;stroke-linecap:butt;stroke-linejoin:miter;stroke-opacity:1;font-family:Sans;-inkscape-font-specification:Sans"
         xml:space="preserve"><tspan
           y="585.78638"
           x="428.59079"
           id="tspan8838"
           sodipodi:role="line">Acceptation connexion cliente</tspan></text>
      <text
         id="text9437"
         y="238.38882"
         x="346.74307"
         style="font-size:18.08023834px;font-style:normal;font-variant:normal;font-weight:normal;font-stretch:normal;fill:#000000;fill-opacity:1;stroke:none;stroke-width:1px;stroke-linecap:butt;stroke-linejoin:miter;stroke-opacity:1;font-family:Sans;-inkscape-font-specification:Sans"
         xml:space="preserve"><tspan
           y="238.38882"
           x="346.74307"
           id="tspan9439"
           sodipodi:role="line">T1</tspan></text>
      <rect
         y="778.6665"
         x="353.15567"
         height="254.52081"
         width="374.59729"
         id="rect5445"
         style="fill:none;stroke:#000000;stroke-width:2;stroke-miterlimit:4;stroke-dasharray:6, 2;stroke-dashoffset:0" />
      <text
         id="text5447"
         y="811.45953"
         x="372.07474"
         style="font-size:14px;font-style:normal;font-variant:normal;font-weight:normal;font-stretch:normal;fill:#000000;fill-opacity:1;stroke:none;stroke-width:1px;stroke-linecap:butt;stroke-linejoin:miter;stroke-opacity:1;font-family:Sans;-inkscape-font-specification:Sans"
         xml:space="preserve"><tspan
           y="811.45953"
           x="372.07474"
           id="tspan5449"
           sodipodi:role="line" /></text>
      <text
         id="text5451"
         y="801.36938"
         x="361.98456"
         style="font-size:12px;font-style:normal;font-variant:normal;font-weight:normal;font-stretch:normal;fill:#000000;fill-opacity:1;stroke:none;stroke-width:1px;stroke-linecap:butt;stroke-linejoin:miter;stroke-opacity:1;font-family:Sans;-inkscape-font-specification:Sans"
         xml:space="preserve"><tspan
           style="font-size:16px"
           id="tspan5475"
           y="801.36938"
           x="361.98456"
           sodipodi:role="line">T0 =1</tspan><tspan
           id="tspan8801"
           style="font-size:16px"
           y="821.36938"
           x="361.98456"
           sodipodi:role="line">T1 Initialisation variables</tspan><tspan
           id="tspan8803"
           style="font-size:16px"
           y="841.36938"
           x="361.98456"
           sodipodi:role="line">T2 socket() - mode serveur</tspan><tspan
           id="tspan8807"
           style="font-size:16px"
           y="861.36938"
           x="361.98456"
           sodipodi:role="line">T3 Acceptation connexion client</tspan><tspan
           id="tspan8809"
           style="font-size:16px"
           y="881.36938"
           x="361.98456"
           sodipodi:role="line">T4 Client connecté à prendre en charge</tspan><tspan
           id="tspan8811"
           style="font-size:16px"
           y="901.36938"
           x="361.98456"
           sodipodi:role="line">T5 Requete prise en charge</tspan><tspan
           id="tspan8805"
           style="font-size:16px"
           y="921.36938"
           x="361.98456"
           sodipodi:role="line" /></text>
      <path
         transform="matrix(0.9312163,0,0,0.9312163,623.98386,633.50727)"
         d="M -217.1828,73.042091 A 37.375645,37.375645 0 1 1 -291.93409,73.042091 A 37.375645,37.375645 0 1 1 -217.1828,73.042091 z"
         sodipodi:ry="37.375645"
         sodipodi:rx="37.375645"
         sodipodi:cy="73.042091"
         sodipodi:cx="-254.55844"
         id="path7331"
         style="fill:none;fill-rule:evenodd;stroke:#000000;stroke-width:2;stroke-linecap:butt;stroke-linejoin:miter;stroke-miterlimit:4;stroke-dasharray:none;stroke-opacity:1"
         sodipodi:type="arc" />
      <path
         inkscape:connection-end="#path7331"
         inkscape:connection-start="#path3204"
         inkscape:connector-type="polyline"
         id="path7333"
         d="M 386.93489,614.91806 L 386.93489,665.78923"
         style="fill:none;fill-rule:evenodd;stroke:#000000;stroke-width:3.01300001;stroke-linecap:butt;stroke-linejoin:miter;marker-end:url(#Arrow2Mend);stroke-miterlimit:4;stroke-dasharray:none;stroke-opacity:1" />
      <text
         xml:space="preserve"
         style="font-size:18.08023834px;font-style:normal;font-variant:normal;font-weight:normal;font-stretch:normal;fill:#000000;fill-opacity:1;stroke:none;stroke-width:1px;stroke-linecap:butt;stroke-linejoin:miter;stroke-opacity:1;font-family:Sans;-inkscape-font-specification:Sans"
         x="428.59079"
         y="708.12958"
         id="text7862"><tspan
           sodipodi:role="line"
           id="tspan7864"
           x="428.59079"
           y="708.12958">Thread - routine handleClient()</tspan></text>
      <path
         sodipodi:nodetypes="ccccc"
         inkscape:connection-end="#path3198"
         inkscape:connection-start="#path7331"
         inkscape:connector-type="polyline"
         id="path7866"
         d="M 386.60956,736.43401 L 386.60956,760.75803 L 292.41653,760.75803 L 292.41653,443.76224 L 349.47577,443.76224"
         style="fill:none;fill-rule:evenodd;stroke:#000000;stroke-width:3.01300001;stroke-linecap:butt;stroke-linejoin:miter;marker-end:url(#Arrow2Mend);stroke-miterlimit:4;stroke-dasharray:none;stroke-opacity:1" />
      <text
         id="text8720"
         y="641.41919"
         x="346.74307"
         style="font-size:18.08023834px;font-style:normal;font-variant:normal;font-weight:normal;font-stretch:normal;fill:#000000;fill-opacity:1;stroke:none;stroke-width:1px;stroke-linecap:butt;stroke-linejoin:miter;stroke-opacity:1;font-family:Sans;-inkscape-font-specification:Sans"
         xml:space="preserve"><tspan
           y="641.41919"
           x="346.74307"
           id="tspan8722"
           sodipodi:role="line">T4</tspan></text>
      <text
         id="text8813"
         y="608.39502"
         x="127.3883"
         style="font-size:12px;font-style:normal;font-variant:normal;font-weight:normal;font-stretch:normal;fill:#000000;fill-opacity:1;stroke:none;stroke-width:1px;stroke-linecap:butt;stroke-linejoin:miter;stroke-opacity:1;font-family:Sans;-inkscape-font-specification:Sans"
         xml:space="preserve"><tspan
           y="608.39502"
           x="127.3883"
           id="tspan8815"
           sodipodi:role="line" /></text>
      <text
         xml:space="preserve"
         style="font-size:18.08023834px;font-style:normal;font-variant:normal;font-weight:normal;font-stretch:normal;fill:#000000;fill-opacity:1;stroke:none;stroke-width:1px;stroke-linecap:butt;stroke-linejoin:miter;stroke-opacity:1;font-family:Sans;-inkscape-font-specification:Sans"
         x="237.03302"
         y="611.14868"
         id="text8817"><tspan
           sodipodi:role="line"
           id="tspan8819"
           x="237.03302"
           y="611.14868">T5</tspan></text>
    </g>
  </g>
</svg>
