<?xml version="1.0" encoding="UTF-8" standalone="no"?>
<!-- Created with Inkscape (http://www.inkscape.org/) -->

<svg
   xmlns:dc="http://purl.org/dc/elements/1.1/"
   xmlns:cc="http://creativecommons.org/ns#"
   xmlns:rdf="http://www.w3.org/1999/02/22-rdf-syntax-ns#"
   xmlns:svg="http://www.w3.org/2000/svg"
   xmlns="http://www.w3.org/2000/svg"
   xmlns:sodipodi="http://sodipodi.sourceforge.net/DTD/sodipodi-0.dtd"
   xmlns:inkscape="http://www.inkscape.org/namespaces/inkscape"
   version="1.0"
   width="404"
   height="467"
   id="svg2031"
   inkscape:version="0.48.0 r9654"
   sodipodi:docname="Osi-model-jb.svg"
   inkscape:export-filename="/home/rboissat/Downloads/osi.png"
   inkscape:export-xdpi="200"
   inkscape:export-ydpi="200">
  <metadata
     id="metadata81">
    <rdf:RDF>
      <cc:Work
         rdf:about="">
        <dc:format>image/svg+xml</dc:format>
        <dc:type
           rdf:resource="http://purl.org/dc/dcmitype/StillImage" />
        <dc:title></dc:title>
      </cc:Work>
    </rdf:RDF>
  </metadata>
  <sodipodi:namedview
     pagecolor="#ffffff"
     bordercolor="#666666"
     borderopacity="1"
     objecttolerance="10"
     gridtolerance="10"
     guidetolerance="10"
     inkscape:pageopacity="0"
     inkscape:pageshadow="2"
     inkscape:window-width="1440"
     inkscape:window-height="869"
     id="namedview79"
     showgrid="false"
     inkscape:zoom="1.5565434"
     inkscape:cx="106.15115"
     inkscape:cy="203.79645"
     inkscape:window-x="0"
     inkscape:window-y="1"
     inkscape:window-maximized="1"
     inkscape:current-layer="layer1" />
  <defs
     id="defs2033" />
  <g
     transform="translate(-1103.714,-804.5765)"
     id="layer1">
    <text
       x="1217.728"
       y="840.94855"
       style="font-size:32px;font-style:normal;font-variant:normal;font-weight:bold;font-stretch:normal;text-align:start;line-height:125%;writing-mode:lr-tb;text-anchor:start;fill:#000000;fill-opacity:1;stroke:none;font-family:Ubuntu;-inkscape-font-specification:Ubuntu Bold"
       id="text2115"
       xml:space="preserve"
       sodipodi:linespacing="125%"><tspan
         x="1217.728"
         y="840.94855"
         id="tspan2117"
         style="font-size:32px;font-style:normal;font-variant:normal;font-weight:bold;font-stretch:normal;font-family:Ubuntu;-inkscape-font-specification:Ubuntu Bold">Modèle OSI</tspan></text>
    <path
       inkscape:connector-curvature="0"
       d="m 1153.714,985.5765 a 2.5,102 0 0 1 -5,0 2.5,102 0 1 1 5,0 z"
       style="fill:#b3b3b3;fill-opacity:1;stroke:none"
       id="path2279" />
    <path
       inkscape:connector-curvature="0"
       d="m 1153.714,1175.5766 a 2.5,71.999964 0 0 1 -5,0 2.5,71.999964 0 1 1 5,0 z"
       style="fill:#b3b3b3;fill-opacity:1;stroke:none"
       id="path3167" />
    <text
       transform="matrix(0,-1,1,0,0,0)"
       sodipodi:linespacing="125%"
       id="text3062"
       y="1138.074"
       x="-1227.7292"
       style="font-size:18px;font-style:normal;font-weight:normal;line-height:125%;letter-spacing:0px;word-spacing:0px;fill:#000000;fill-opacity:1;stroke:none;font-family:Sans"
       xml:space="preserve"><tspan
         style="font-size:28px;font-style:normal;font-variant:normal;font-weight:normal;font-stretch:normal;font-family:Ubuntu;-inkscape-font-specification:Ubuntu"
         y="1138.074"
         x="-1227.7292"
         id="tspan3064"
         sodipodi:role="line">Medium</tspan></text>
    <text
       xml:space="preserve"
       style="font-size:18px;font-style:normal;font-weight:normal;line-height:125%;letter-spacing:0px;word-spacing:0px;fill:#000000;fill-opacity:1;stroke:none;font-family:Sans"
       x="-1017.6956"
       y="1138.074"
       id="text3066"
       sodipodi:linespacing="125%"
       transform="matrix(0,-1,1,0,0,0)"><tspan
         sodipodi:role="line"
         id="tspan3068"
         x="-1017.6956"
         y="1138.074"
         style="font-size:28px;font-style:normal;font-variant:normal;font-weight:normal;font-stretch:normal;font-family:Ubuntu;-inkscape-font-specification:Ubuntu">Hôte</tspan></text>
    <text
       x="1204.5784"
       y="872.71161"
       style="font-size:23.56184959px;font-style:normal;font-variant:normal;font-weight:normal;font-stretch:normal;fill:#000000;fill-opacity:1;stroke:none;font-family:Ubuntu;-inkscape-font-specification:Ubuntu"
       id="text2119"
       xml:space="preserve"><tspan
         x="1204.5784"
         y="872.71161"
         id="tspan2121"
         style="font-style:normal;font-variant:normal;font-weight:normal;font-stretch:normal;font-family:Ubuntu;-inkscape-font-specification:Ubuntu">PDU</tspan></text>
    <text
       x="1343.6877"
       y="868.93921"
       style="font-size:23.95616531px;font-style:normal;font-variant:normal;font-weight:normal;font-stretch:normal;fill:#000000;fill-opacity:1;stroke:none;font-family:Ubuntu;-inkscape-font-specification:Ubuntu"
       id="text2123"
       xml:space="preserve"><tspan
         x="1343.6877"
         y="868.93921"
         id="tspan2125"
         style="font-style:normal;font-variant:normal;font-weight:normal;font-stretch:normal;font-family:Ubuntu;-inkscape-font-specification:Ubuntu">Couche</tspan></text>
    <g
       id="g4187"
       transform="translate(0,0.36056519)">
      <rect
         id="rect2247"
         style="fill:#ccff99;fill-opacity:1;stroke:#000000;stroke-width:1;stroke-miterlimit:4;stroke-opacity:1;stroke-dasharray:none"
         y="988.59698"
         x="1173.4536"
         ry="17.638226"
         height="45.153862"
         width="107.37926" />
      <text
         xml:space="preserve"
         id="text2135"
         style="font-size:16px;font-style:normal;font-variant:normal;font-weight:normal;font-stretch:normal;fill:#000000;fill-opacity:1;stroke:none;font-family:Ubuntu;-inkscape-font-specification:Ubuntu"
         y="1017.2779"
         x="1194.4329"><tspan
           style="font-size:16px;font-style:normal;font-variant:normal;font-weight:normal;font-stretch:normal;font-family:Ubuntu;-inkscape-font-specification:Ubuntu"
           id="tspan2137"
           y="1017.2779"
           x="1194.4329">Données</tspan></text>
      <rect
         width="107.37926"
         height="45.153862"
         ry="17.638226"
         x="1330.595"
         y="988.59698"
         style="fill:#ccff99;fill-opacity:1;stroke:#000000;stroke-width:1;stroke-miterlimit:4;stroke-opacity:1;stroke-dasharray:none"
         id="rect3084" />
      <text
         xml:space="preserve"
         id="text2147"
         style="font-size:16px;font-style:normal;font-variant:normal;font-weight:normal;font-stretch:normal;fill:#000000;fill-opacity:1;stroke:none;font-family:Ubuntu;-inkscape-font-specification:Ubuntu"
         y="1016.9419"
         x="1357.2074"><tspan
           style="font-size:16px;font-style:normal;font-variant:normal;font-weight:normal;font-stretch:normal;font-family:Ubuntu;-inkscape-font-specification:Ubuntu"
           id="tspan2149"
           y="1016.9419"
           x="1357.2074">Session</tspan></text>
    </g>
    <g
       id="g4179"
       transform="translate(0,-0.61351013)">
      <rect
         id="rect2257"
         style="fill:#d2fd62;fill-opacity:1;stroke:#000000;stroke-width:1;stroke-miterlimit:4;stroke-opacity:1;stroke-dasharray:none"
         y="1043.7513"
         x="1173.4536"
         ry="17.638226"
         height="45.153862"
         width="107.37926" />
      <rect
         width="107.37926"
         height="45.153862"
         ry="17.638226"
         x="1330.595"
         y="1043.7513"
         style="fill:#d2fd62;fill-opacity:1;stroke:#000000;stroke-width:1;stroke-miterlimit:4;stroke-opacity:1;stroke-dasharray:none"
         id="rect3086" />
      <text
         xml:space="preserve"
         id="text2151"
         style="font-size:16px;font-style:normal;font-variant:normal;font-weight:normal;font-stretch:normal;fill:#000000;fill-opacity:1;stroke:none;font-family:Ubuntu;-inkscape-font-specification:Ubuntu"
         y="1070.3923"
         x="1348.6464"><tspan
           style="font-size:16px;font-style:normal;font-variant:normal;font-weight:normal;font-stretch:normal;font-family:Ubuntu;-inkscape-font-specification:Ubuntu"
           id="tspan2153"
           y="1070.3923"
           x="1348.6464">Transport</tspan></text>
      <text
         xml:space="preserve"
         id="text2167"
         style="font-size:16px;font-style:normal;font-variant:normal;font-weight:normal;font-stretch:normal;fill:#000000;fill-opacity:1;stroke:none;font-family:Ubuntu;-inkscape-font-specification:Ubuntu"
         transform="scale(0.97171805,1.0291051)"
         y="1040.3385"
         x="1226.573"><tspan
           style="font-size:16px;font-style:normal;font-variant:normal;font-weight:normal;font-stretch:normal;font-family:Ubuntu;-inkscape-font-specification:Ubuntu"
           id="tspan2169"
           y="1040.3385"
           x="1226.573">Segments</tspan></text>
    </g>
    <g
       id="g4118"
       transform="translate(16.534808,1.9480133)">
      <rect
         id="rect2259"
         style="fill:#fcfb65;fill-opacity:1;stroke:#000000;stroke-width:1;stroke-miterlimit:4;stroke-opacity:1;stroke-dasharray:none"
         y="1095.3701"
         x="1157.626"
         ry="17.638226"
         height="45.153862"
         width="107.37926" />
      <rect
         width="107.37926"
         height="45.153862"
         ry="17.638226"
         x="1314.7673"
         y="1095.3701"
         style="fill:#fcfb65;fill-opacity:1;stroke:#000000;stroke-width:1;stroke-miterlimit:4;stroke-opacity:1;stroke-dasharray:none"
         id="rect3088" />
      <text
         xml:space="preserve"
         id="text2155"
         style="font-size:16px;font-style:normal;font-variant:normal;font-weight:normal;font-stretch:normal;fill:#000000;fill-opacity:1;stroke:none;font-family:Ubuntu;-inkscape-font-specification:Ubuntu"
         y="1124.0591"
         x="1341.9255"><tspan
           style="font-size:16px;font-style:normal;font-variant:normal;font-weight:normal;font-stretch:normal;font-family:Ubuntu;-inkscape-font-specification:Ubuntu"
           id="tspan2157"
           y="1124.0591"
           x="1341.9255">Réseau</tspan></text>
      <text
         xml:space="preserve"
         id="text2171"
         style="font-size:16px;font-style:normal;font-variant:normal;font-weight:normal;font-stretch:normal;fill:#000000;fill-opacity:1;stroke:none;font-family:Ubuntu;-inkscape-font-specification:Ubuntu"
         transform="scale(0.97171805,1.0291051)"
         y="1090.4493"
         x="1216.5326"><tspan
           style="font-size:16px;font-style:normal;font-variant:normal;font-weight:normal;font-stretch:normal;font-family:Ubuntu;-inkscape-font-specification:Ubuntu"
           id="tspan2173"
           y="1090.4493"
           x="1216.5326">Paquets</tspan></text>
    </g>
    <g
       transform="translate(16.534808,-2.5615158)"
       id="g4106">
      <rect
         id="rect2265"
         style="fill:#ffaf40;fill-opacity:1;stroke:#000000;stroke-width:1;stroke-miterlimit:4;stroke-opacity:1;stroke-dasharray:none"
         y="1154.0599"
         x="1156.2118"
         ry="17.638226"
         height="45.153862"
         width="107.37926" />
      <rect
         width="107.37926"
         height="45.153862"
         ry="17.638226"
         x="1313.3531"
         y="1154.0599"
         style="fill:#ffaf40;fill-opacity:1;stroke:#000000;stroke-width:1;stroke-miterlimit:4;stroke-opacity:1;stroke-dasharray:none"
         id="rect3090" />
      <g
         transform="translate(-4.3200355,1.7389144)"
         id="g3149">
        <text
           x="1334.0494"
           y="1174.002"
           style="font-size:16px;font-style:normal;font-variant:normal;font-weight:normal;font-stretch:normal;fill:#000000;fill-opacity:1;stroke:none;font-family:Ubuntu;-inkscape-font-specification:Ubuntu"
           id="text2159"
           xml:space="preserve"><tspan
             x="1334.0494"
             y="1174.002"
             id="tspan2161"
             style="font-size:16px;font-style:normal;font-variant:normal;font-weight:normal;font-stretch:normal;font-family:Ubuntu;-inkscape-font-specification:Ubuntu">Liaison de </tspan></text>
        <text
           x="1339.9169"
           y="1188.002"
           style="font-size:16px;font-style:normal;font-variant:normal;font-weight:normal;font-stretch:normal;fill:#000000;fill-opacity:1;stroke:none;font-family:Ubuntu;-inkscape-font-specification:Ubuntu"
           xml:space="preserve"
           id="text3144"><tspan
             x="1339.9169"
             y="1188.002"
             style="font-size:16px;font-style:normal;font-variant:normal;font-weight:normal;font-stretch:normal;font-family:Ubuntu;-inkscape-font-specification:Ubuntu"
             id="tspan3146">données</tspan><tspan
             x="1339.9169"
             y="1188.002"
             style="font-size:16px;font-style:normal;font-variant:normal;font-weight:normal;font-stretch:normal;font-family:Ubuntu;-inkscape-font-specification:Ubuntu"
             id="tspan3142" /></text>
      </g>
      <text
         xml:space="preserve"
         id="text2175"
         style="font-size:16px;font-style:normal;font-variant:normal;font-weight:normal;font-stretch:normal;fill:#000000;fill-opacity:1;stroke:none;font-family:Ubuntu;-inkscape-font-specification:Ubuntu"
         transform="scale(0.97171805,1.0291051)"
         y="1148.8073"
         x="1218.7153"><tspan
           style="font-size:16px;font-style:normal;font-variant:normal;font-weight:normal;font-stretch:normal;font-family:Ubuntu;-inkscape-font-specification:Ubuntu"
           id="tspan2177"
           y="1148.8073"
           x="1218.7153">Trames</tspan></text>
    </g>
    <g
       id="g4098"
       transform="translate(16.534808,0)">
      <rect
         id="rect2267"
         style="fill:#fe2a18;fill-opacity:1;stroke:#000000;stroke-width:1;stroke-miterlimit:4;stroke-opacity:1;stroke-dasharray:none"
         y="1205.6787"
         x="1156.2118"
         ry="17.638226"
         height="45.153862"
         width="107.37926" />
      <rect
         width="107.37926"
         height="45.153862"
         ry="17.638226"
         x="1313.3531"
         y="1205.6787"
         style="fill:#fe2a18;fill-opacity:1;stroke:#000000;stroke-width:1;stroke-miterlimit:4;stroke-opacity:1;stroke-dasharray:none"
         id="rect3092" />
      <text
         xml:space="preserve"
         id="text2163"
         style="font-size:16px;font-style:normal;font-variant:normal;font-weight:normal;font-stretch:normal;fill:#000000;fill-opacity:1;stroke:none;font-family:Ubuntu;-inkscape-font-specification:Ubuntu"
         y="1232.9596"
         x="1333.8922"><tspan
           style="font-size:16px;font-style:normal;font-variant:normal;font-weight:normal;font-stretch:normal;font-family:Ubuntu;-inkscape-font-specification:Ubuntu"
           id="tspan2165"
           y="1232.9596"
           x="1333.8922">Physique</tspan></text>
      <text
         xml:space="preserve"
         id="text2179"
         style="font-size:16px;font-style:normal;font-variant:normal;font-weight:normal;font-stretch:normal;fill:#000000;fill-opacity:1;stroke:none;font-family:Ubuntu;-inkscape-font-specification:Ubuntu"
         transform="scale(0.97171805,1.0291051)"
         y="1199.3102"
         x="1230.6553"><tspan
           style="font-size:16px;font-style:normal;font-variant:normal;font-weight:normal;font-stretch:normal;font-family:Ubuntu;-inkscape-font-specification:Ubuntu"
           id="tspan2181"
           y="1199.3102"
           x="1230.6553">Bits</tspan></text>
    </g>
    <g
       id="g4195"
       transform="translate(0,0.18029785)">
      <rect
         id="rect2245"
         style="fill:#ccff99;fill-opacity:1;stroke:#000000;stroke-width:1;stroke-miterlimit:4;stroke-opacity:1;stroke-dasharray:none"
         y="934.59338"
         x="1173.4501"
         ry="17.641018"
         height="45.161011"
         width="105.9722" />
      <rect
         width="105.9722"
         height="45.161011"
         ry="17.641018"
         x="1330.5914"
         y="934.59338"
         style="fill:#ccff99;fill-opacity:1;stroke:#000000;stroke-width:1;stroke-miterlimit:4;stroke-opacity:1;stroke-dasharray:none"
         id="rect3082" />
      <text
         xml:space="preserve"
         id="text2143"
         style="font-size:16px;font-style:normal;font-variant:normal;font-weight:normal;font-stretch:normal;fill:#000000;fill-opacity:1;stroke:none;font-family:Ubuntu;-inkscape-font-specification:Ubuntu"
         y="963.27789"
         x="1336.1075"><tspan
           style="font-size:16px;font-style:normal;font-variant:normal;font-weight:normal;font-stretch:normal;font-family:Ubuntu;-inkscape-font-specification:Ubuntu"
           id="tspan2145"
           y="963.27789"
           x="1336.1075">Présentation</tspan></text>
      <text
         x="1193.7258"
         y="963.27789"
         style="font-size:16px;font-style:normal;font-variant:normal;font-weight:normal;font-stretch:normal;fill:#000000;fill-opacity:1;stroke:none;font-family:Ubuntu;-inkscape-font-specification:Ubuntu"
         id="text3156"
         xml:space="preserve"><tspan
           x="1193.7258"
           y="963.27789"
           id="tspan3158"
           style="font-size:16px;font-style:normal;font-variant:normal;font-weight:normal;font-stretch:normal;font-family:Ubuntu;-inkscape-font-specification:Ubuntu">Données</tspan></text>
    </g>
    <g
       id="g4203">
      <rect
         id="rect2243"
         style="fill:#ccff99;fill-opacity:1;stroke:#000000;stroke-width:1;stroke-miterlimit:4;stroke-opacity:1;stroke-dasharray:none"
         y="880.59338"
         x="1175.4501"
         ry="17.641018"
         height="45.161011"
         width="105.9722" />
      <rect
         width="105.9722"
         height="45.161011"
         ry="17.641018"
         x="1332.5914"
         y="880.59338"
         style="fill:#ccff99;fill-opacity:1;stroke:#000000;stroke-width:1;stroke-miterlimit:4;stroke-opacity:1;stroke-dasharray:none"
         id="rect3080" />
      <text
         xml:space="preserve"
         id="text2139"
         style="font-size:16px;font-style:normal;font-variant:normal;font-weight:normal;font-stretch:normal;fill:#000000;fill-opacity:1;stroke:none;font-family:Ubuntu;-inkscape-font-specification:Ubuntu"
         y="907.90192"
         x="1344.3409"><tspan
           style="font-size:16px;font-style:normal;font-variant:normal;font-weight:normal;font-stretch:normal;font-family:Ubuntu;-inkscape-font-specification:Ubuntu"
           id="tspan2141"
           y="907.90192"
           x="1344.3409">Application</tspan></text>
      <text
         xml:space="preserve"
         id="text3160"
         style="font-size:16px;font-style:normal;font-variant:normal;font-weight:normal;font-stretch:normal;fill:#000000;fill-opacity:1;stroke:none;font-family:Ubuntu;-inkscape-font-specification:Ubuntu"
         y="909.27789"
         x="1195.7258"><tspan
           style="font-size:16px;font-style:normal;font-variant:normal;font-weight:normal;font-stretch:normal;font-family:Ubuntu;-inkscape-font-specification:Ubuntu"
           id="tspan3162"
           y="909.27789"
           x="1195.7258">Données</tspan></text>
    </g>
  </g>
</svg>
