<?xml version="1.0" encoding="UTF-8"?>
<svg xmlns="http://www.w3.org/2000/svg" xmlns:xlink="http://www.w3.org/1999/xlink" width="49pt" height="21pt" viewBox="0 0 49 21" version="1.1">
<defs>
<clipPath id="clip1">
  <path d="M 0 0.359375 L 48.8125 0.359375 L 48.8125 21 L 0 21 L 0 0.359375 Z M 0 0.359375 "/>
</clipPath>
<clipPath id="clip2">
  <path d="M 0 0.359375 L 48.8125 0.359375 L 48.8125 21 L 0 21 L 0 0.359375 Z M 0 0.359375 "/>
</clipPath>
<clipPath id="clip3">
  <path d="M 0 0.359375 L 48.8125 0.359375 L 48.8125 21 L 0 21 L 0 0.359375 Z M 0 0.359375 "/>
</clipPath>
</defs>
<g id="surface0">
<path style=" stroke:none;fill-rule:nonzero;fill:rgb(3.292897%,48.297856%,73.151751%);fill-opacity:1;" d="M 0.65625 12.445312 L 36.378906 12.445312 L 36.378906 20.152344 L 0.65625 20.152344 L 0.65625 12.445312 Z M 0.65625 12.445312 "/>
<g clip-path="url(#clip1)" clip-rule="nonzero">
<path style="fill:none;stroke-width:0.4;stroke-linecap:butt;stroke-linejoin:miter;stroke:rgb(100%,100%,100%);stroke-opacity:1;stroke-miterlimit:4;" d="M 0.65625 0.847656 L 36.378906 0.847656 L 36.378906 8.554688 L 0.65625 8.554688 L 0.65625 0.847656 Z M 0.65625 0.847656 " transform="matrix(1,0,0,-1,0,21)"/>
</g>
<path style=" stroke:none;fill-rule:nonzero;fill:rgb(3.292897%,48.297856%,73.151751%);fill-opacity:1;" d="M 0.5625 12.507812 L 14.992188 0.8125 L 48.324219 0.8125 L 36.34375 12.507812 L 0.5625 12.507812 "/>
<g clip-path="url(#clip2)" clip-rule="nonzero">
<path style="fill:none;stroke-width:0.4;stroke-linecap:butt;stroke-linejoin:miter;stroke:rgb(100%,100%,100%);stroke-opacity:1;stroke-miterlimit:4;" d="M 0.5625 8.492188 L 14.992188 20.1875 L 48.324219 20.1875 L 36.34375 8.492188 L 0.5625 8.492188 Z M 0.5625 8.492188 " transform="matrix(1,0,0,-1,0,21)"/>
</g>
<path style=" stroke:none;fill-rule:nonzero;fill:rgb(3.292897%,48.297856%,73.151751%);fill-opacity:1;" d="M 36.359375 20.519531 L 48.289062 8.636719 L 48.296875 0.832031 L 36.359375 12.488281 L 36.359375 20.519531 "/>
<g clip-path="url(#clip3)" clip-rule="nonzero">
<path style="fill:none;stroke-width:0.4;stroke-linecap:butt;stroke-linejoin:miter;stroke:rgb(100%,100%,100%);stroke-opacity:1;stroke-miterlimit:4;" d="M 36.359375 0.480469 L 48.289062 12.363281 L 48.296875 20.167969 L 36.359375 8.511719 L 36.359375 0.480469 Z M 36.359375 0.480469 " transform="matrix(1,0,0,-1,0,21)"/>
</g>
<path style=" stroke:none;fill-rule:nonzero;fill:rgb(100%,100%,100%);fill-opacity:1;" d="M 23.707031 3.847656 L 24.511719 6.503906 L 19.03125 5.820312 L 20.566406 5.257812 L 14.972656 2.21875 L 17.128906 1.394531 L 22.453125 4.269531 L 23.707031 3.847656 "/>
<path style=" stroke:none;fill-rule:nonzero;fill:rgb(100%,100%,100%);fill-opacity:1;" d="M 26.40625 9.421875 L 25.484375 6.863281 L 30.914062 7.566406 L 29.929688 8.035156 L 36.011719 10.886719 L 33.761719 11.78125 L 27.742188 8.816406 L 26.40625 9.421875 "/>
<path style=" stroke:none;fill-rule:nonzero;fill:rgb(100%,100%,100%);fill-opacity:1;" d="M 37.835938 1.710938 L 43.832031 2.171875 L 43.0625 4.535156 L 41.789062 3.785156 L 29.457031 6.667969 L 27.042969 5.390625 L 39.445312 2.582031 L 37.835938 1.710938 "/>
<path style=" stroke:none;fill-rule:nonzero;fill:rgb(100%,100%,100%);fill-opacity:1;" d="M 11.742188 11.746094 L 6.191406 10.859375 L 6.859375 8.386719 L 8.238281 9.242188 L 20.726562 6.699219 L 23.105469 8.03125 L 10.347656 10.730469 L 11.742188 11.746094 "/>
<path style=" stroke:none;fill-rule:nonzero;fill:rgb(100%,100%,100%);fill-opacity:1;" d="M 3.136719 14.65625 L 10.761719 14.65625 L 10.761719 17.78125 L 3.136719 17.78125 L 3.136719 14.65625 Z M 3.136719 14.65625 "/>
<path style=" stroke:none;fill-rule:nonzero;fill:rgb(100%,100%,100%);fill-opacity:1;" d="M 25.609375 14.65625 L 33.234375 14.65625 L 33.234375 17.78125 L 25.609375 17.78125 L 25.609375 14.65625 Z M 25.609375 14.65625 "/>
</g>
</svg>
