<?xml version="1.0" encoding="UTF-8" standalone="no"?>
<!-- Created with Inkscape (http://www.inkscape.org/) -->
<svg
   xmlns:dc="http://purl.org/dc/elements/1.1/"
   xmlns:cc="http://creativecommons.org/ns#"
   xmlns:rdf="http://www.w3.org/1999/02/22-rdf-syntax-ns#"
   xmlns:svg="http://www.w3.org/2000/svg"
   xmlns="http://www.w3.org/2000/svg"
   xmlns:xlink="http://www.w3.org/1999/xlink"
   xmlns:sodipodi="http://sodipodi.sourceforge.net/DTD/sodipodi-0.dtd"
   xmlns:inkscape="http://www.inkscape.org/namespaces/inkscape"
   width="210mm"
   height="297mm"
   id="svg2"
   sodipodi:version="0.32"
   inkscape:version="0.46"
   sodipodi:docname="methode.svg"
   inkscape:output_extension="org.inkscape.output.svg.inkscape">
  <defs
     id="defs4">
    <inkscape:perspective
       sodipodi:type="inkscape:persp3d"
       inkscape:vp_x="0 : 526.18109 : 1"
       inkscape:vp_y="0 : 1000 : 0"
       inkscape:vp_z="744.09448 : 526.18109 : 1"
       inkscape:persp3d-origin="372.04724 : 350.78739 : 1"
       id="perspective10" />
    <linearGradient
       y2="84.147896"
       x2="145.71428"
       y1="81.647896"
       x1="315.35715"
       gradientTransform="matrix(0.6369956,0,0,0.7409087,199.48071,1078.7578)"
       gradientUnits="userSpaceOnUse"
       id="linearGradient2900"
       xlink:href="#linearGradient3840"
       inkscape:collect="always" />
    <linearGradient
       y2="84.147896"
       x2="145.71428"
       y1="81.647896"
       x1="315.35715"
       gradientTransform="translate(4.0406033,139.40106)"
       gradientUnits="userSpaceOnUse"
       id="linearGradient5521"
       xlink:href="#linearGradient3800"
       inkscape:collect="always" />
    <linearGradient
       y2="560.48718"
       x2="385.625"
       y1="578.70142"
       x1="376.51785"
       gradientTransform="translate(-148.57143,3.5714286)"
       gradientUnits="userSpaceOnUse"
       id="linearGradient5013"
       xlink:href="#linearGradient4964"
       inkscape:collect="always" />
    <filter
       height="1.2781814"
       y="-0.13909069"
       width="1.1192693"
       x="-0.059634633"
       id="filter4523"
       inkscape:collect="always">
      <feGaussianBlur
         id="feGaussianBlur4525"
         stdDeviation="6.2650073"
         inkscape:collect="always" />
    </filter>
    <linearGradient
       y2="84.147896"
       x2="145.71428"
       y1="81.647896"
       x1="315.35715"
       gradientUnits="userSpaceOnUse"
       id="linearGradient3982"
       xlink:href="#linearGradient3696"
       inkscape:collect="always" />
    <linearGradient
       y2="84.147896"
       x2="145.71428"
       y1="81.647896"
       x1="315.35715"
       gradientUnits="userSpaceOnUse"
       id="linearGradient3767"
       xlink:href="#linearGradient3696"
       inkscape:collect="always" />
    <linearGradient
       gradientTransform="translate(32.324875,566.69559)"
       y2="84.147896"
       x2="145.71428"
       y1="81.647896"
       x1="315.35715"
       gradientUnits="userSpaceOnUse"
       id="linearGradient3726"
       xlink:href="#linearGradient3696"
       inkscape:collect="always" />
    <linearGradient
       gradientTransform="translate(2.0202982,330.31989)"
       y2="84.147896"
       x2="145.71428"
       y1="81.647896"
       x1="315.35715"
       gradientUnits="userSpaceOnUse"
       id="linearGradient3718"
       xlink:href="#linearGradient3696"
       inkscape:collect="always" />
    <linearGradient
       gradientUnits="userSpaceOnUse"
       y2="84.147896"
       x2="145.71428"
       y1="81.647896"
       x1="315.35715"
       id="linearGradient3702"
       xlink:href="#linearGradient3696"
       inkscape:collect="always" />
    <inkscape:perspective
       id="perspective3066"
       inkscape:persp3d-origin="372.04724 : 350.78739 : 1"
       inkscape:vp_z="744.09448 : 526.18109 : 1"
       inkscape:vp_y="0 : 1000 : 0"
       inkscape:vp_x="0 : 526.18109 : 1"
       sodipodi:type="inkscape:persp3d" />
    <linearGradient
       id="linearGradient3696"
       inkscape:collect="always">
      <stop
         id="stop3698"
         offset="0"
         style="stop-color:#ea8c03;stop-opacity:1" />
      <stop
         id="stop3700"
         offset="1"
         style="stop-color:#fcaf3e;stop-opacity:1" />
    </linearGradient>
    <linearGradient
       id="linearGradient3800"
       inkscape:collect="always">
      <stop
         id="stop3802"
         offset="0"
         style="stop-color:#60b012;stop-opacity:1" />
      <stop
         id="stop3804"
         offset="1"
         style="stop-color:#73d216;stop-opacity:1" />
    </linearGradient>
    <linearGradient
       id="linearGradient3840"
       inkscape:collect="always">
      <stop
         id="stop3842"
         offset="0"
         style="stop-color:#4e87c3;stop-opacity:1" />
      <stop
         id="stop3844"
         offset="1"
         style="stop-color:#729fcf;stop-opacity:1" />
    </linearGradient>
    <linearGradient
       inkscape:collect="always"
       id="linearGradient4465">
      <stop
         style="stop-color:#3465a4;stop-opacity:1"
         offset="0"
         id="stop4467" />
      <stop
         style="stop-color:#729fcf;stop-opacity:1"
         offset="1"
         id="stop4469" />
    </linearGradient>
    <linearGradient
       id="linearGradient4964"
       inkscape:collect="always">
      <stop
         id="stop4966"
         offset="0"
         style="stop-color:#ffffff;stop-opacity:1;" />
      <stop
         id="stop4968"
         offset="1"
         style="stop-color:#ffffff;stop-opacity:0;" />
    </linearGradient>
    <linearGradient
       inkscape:collect="always"
       xlink:href="#linearGradient4465"
       id="linearGradient4733"
       gradientUnits="userSpaceOnUse"
       gradientTransform="matrix(1.1444678,0,0,1.89843,-26.547521,239.4246)"
       x1="315.35715"
       y1="81.647896"
       x2="145.71428"
       y2="84.147896" />
    <linearGradient
       inkscape:collect="always"
       xlink:href="#linearGradient3840"
       id="linearGradient4765"
       gradientUnits="userSpaceOnUse"
       gradientTransform="matrix(0.4965535,0,0,0.4965535,278.45699,90.503938)"
       x1="315.35715"
       y1="81.647896"
       x2="145.71428"
       y2="84.147896" />
    <linearGradient
       inkscape:collect="always"
       xlink:href="#linearGradient3840"
       id="linearGradient4805"
       gradientUnits="userSpaceOnUse"
       gradientTransform="matrix(1.0920248,0,0,0.5379295,369.8113,593.40269)"
       x1="315.35715"
       y1="81.647896"
       x2="145.71428"
       y2="84.147896" />
    <linearGradient
       inkscape:collect="always"
       xlink:href="#linearGradient3840"
       id="linearGradient4807"
       gradientUnits="userSpaceOnUse"
       gradientTransform="matrix(1.0920248,0,0,0.5379295,375.53271,171.0581)"
       x1="315.35715"
       y1="81.647896"
       x2="145.71428"
       y2="84.147896" />
    <linearGradient
       inkscape:collect="always"
       xlink:href="#linearGradient4964"
       id="linearGradient4830"
       gradientUnits="userSpaceOnUse"
       gradientTransform="translate(-148.57143,3.5714286)"
       x1="376.51785"
       y1="578.70142"
       x2="385.625"
       y2="560.48718" />
    <linearGradient
       inkscape:collect="always"
       xlink:href="#linearGradient4964"
       id="linearGradient4844"
       gradientUnits="userSpaceOnUse"
       gradientTransform="translate(-148.57143,3.5714286)"
       x1="376.51785"
       y1="578.70142"
       x2="385.625"
       y2="560.48718" />
    <linearGradient
       inkscape:collect="always"
       xlink:href="#linearGradient4964"
       id="linearGradient4858"
       gradientUnits="userSpaceOnUse"
       gradientTransform="translate(-148.57143,3.5714286)"
       x1="376.51785"
       y1="578.70142"
       x2="385.625"
       y2="560.48718" />
    <linearGradient
       inkscape:collect="always"
       xlink:href="#linearGradient3840"
       id="linearGradient4897"
       gradientUnits="userSpaceOnUse"
       gradientTransform="matrix(1.0920248,0,0,0.5379295,206.95416,117.6884)"
       x1="315.35715"
       y1="81.647896"
       x2="145.71428"
       y2="84.147896" />
    <linearGradient
       inkscape:collect="always"
       xlink:href="#linearGradient4964"
       id="linearGradient4911"
       gradientUnits="userSpaceOnUse"
       gradientTransform="translate(-148.57143,3.5714286)"
       x1="376.51785"
       y1="578.70142"
       x2="385.625"
       y2="560.48718" />
    <linearGradient
       inkscape:collect="always"
       xlink:href="#linearGradient4964"
       id="linearGradient4925"
       gradientUnits="userSpaceOnUse"
       gradientTransform="translate(-148.57143,3.5714286)"
       x1="376.51785"
       y1="578.70142"
       x2="385.625"
       y2="560.48718" />
    <linearGradient
       inkscape:collect="always"
       xlink:href="#linearGradient4964"
       id="linearGradient4935"
       gradientUnits="userSpaceOnUse"
       gradientTransform="translate(-148.57143,3.5714286)"
       x1="376.51785"
       y1="578.70142"
       x2="385.625"
       y2="560.48718" />
  </defs>
  <sodipodi:namedview
     id="base"
     pagecolor="#ffffff"
     bordercolor="#666666"
     borderopacity="1.0"
     inkscape:pageopacity="0.0"
     inkscape:pageshadow="2"
     inkscape:zoom="0.7"
     inkscape:cx="22.86297"
     inkscape:cy="598.28668"
     inkscape:document-units="px"
     inkscape:current-layer="layer1"
     showgrid="false"
     inkscape:window-width="1680"
     inkscape:window-height="1005"
     inkscape:window-x="-2"
     inkscape:window-y="0" />
  <metadata
     id="metadata7">
    <rdf:RDF>
      <cc:Work
         rdf:about="">
        <dc:format>image/svg+xml</dc:format>
        <dc:type
           rdf:resource="http://purl.org/dc/dcmitype/StillImage" />
      </cc:Work>
    </rdf:RDF>
  </metadata>
  <g
     inkscape:label="Calque 1"
     inkscape:groupmode="layer"
     id="layer1">
    <text
       xml:space="preserve"
       style="font-size:18px;font-style:normal;font-weight:normal;text-align:center;text-anchor:middle;fill:#000000;fill-opacity:1;stroke:none;stroke-width:1px;stroke-linecap:butt;stroke-linejoin:miter;stroke-opacity:1;font-family:Arrobatherapy"
       x="1115.1307"
       y="360.77521"
       id="text5097"><tspan
         sodipodi:role="line"
         id="tspan5099"
         x="1115.1307"
         y="360.77521" /></text>
    <path
       style="fill:none;fill-opacity:1;fill-rule:evenodd;stroke:#000000;stroke-width:4;stroke-linecap:round;stroke-linejoin:round;marker:none;marker-start:none;marker-mid:none;marker-end:none;stroke-miterlimit:4;stroke-dasharray:none;stroke-dashoffset:0;stroke-opacity:1;visibility:visible;display:inline;overflow:visible;enable-background:accumulate"
       d="M 379.78922,667.47646 L 452.85452,667.47646 L 451.73052,667.26109"
       id="path5049"
       sodipodi:nodetypes="ccc" />
    <g
       id="g5005"
       transform="matrix(0.6099247,0,0,0.6099247,225.76011,324.53826)">
      <path
         id="path5007"
         d="M 252.17857,544.69643 L 209.74107,562.44643 L 252.17857,580.16518 L 252.17857,566.66518 C 254.24251,566.2046 255.77231,564.49457 255.77232,562.44643 C 255.77232,560.39831 254.24251,558.657 252.17857,558.19643 L 252.17857,544.69643 z"
         style="opacity:0.98999999;fill:#292a28;fill-opacity:1;fill-rule:nonzero;stroke:#0c0e0e;stroke-width:1.89239657;stroke-linecap:butt;stroke-linejoin:round;marker:none;marker-start:none;marker-mid:none;marker-end:none;stroke-miterlimit:4;stroke-dashoffset:0;stroke-opacity:1;visibility:visible;display:inline;overflow:visible;enable-background:accumulate" />
      <path
         sodipodi:nodetypes="ccc"
         id="path5009"
         d="M 213.83577,562.43941 C 240.26434,551.54655 251.03258,578.87818 251.03258,578.87818 L 213.83577,562.43941 z"
         style="fill:url(#linearGradient5013);fill-opacity:1;fill-rule:evenodd;stroke:none;stroke-width:1px;stroke-linecap:butt;stroke-linejoin:miter;stroke-opacity:1" />
      <path
         sodipodi:nodetypes="cccc"
         id="path5011"
         d="M 214.30475,562.44413 L 250.30941,547.42453 L 250.46948,577.81235 L 214.30475,562.44413 z"
         style="opacity:0.98999999;fill:none;fill-opacity:1;fill-rule:nonzero;stroke:#292a28;stroke-width:1.77562881;stroke-linecap:butt;stroke-linejoin:miter;marker:none;marker-start:none;marker-mid:none;marker-end:none;stroke-miterlimit:4;stroke-dasharray:none;stroke-dashoffset:0;stroke-opacity:1;visibility:visible;display:inline;overflow:visible;enable-background:accumulate" />
    </g>
    <g
       id="g4757"
       transform="translate(-235.71429,44.285716)">
      <rect
         transform="matrix(0.4965535,0,0,0.4965535,135.39364,89.329312)"
         rx="20"
         ry="20.000004"
         y="48.602943"
         x="351.44357"
         height="101.01526"
         width="245.04866"
         id="rect4527"
         style="opacity:0.98999999;fill:#555753;fill-opacity:1;stroke:#555753;stroke-width:7.08700037;stroke-linecap:butt;stroke-linejoin:round;stroke-miterlimit:4;stroke-dasharray:none;stroke-dashoffset:0;stroke-opacity:1;filter:url(#filter4523)" />
      <rect
         style="opacity:0.98999999;fill:url(#linearGradient4765);fill-opacity:1;stroke:#3465a4;stroke-width:3.51907492;stroke-linecap:butt;stroke-linejoin:round;stroke-miterlimit:4;stroke-dasharray:none;stroke-dashoffset:0;stroke-opacity:1"
         id="rect3828"
         width="121.67977"
         height="50.159481"
         x="307.90417"
         y="111.46328"
         ry="9.9310722"
         rx="9.9310703" />
      <path
         style="opacity:0.78299118;fill:#ffffff;fill-opacity:0.14369501;stroke:none;stroke-width:7.08700085;stroke-linecap:butt;stroke-linejoin:round;stroke-miterlimit:4;stroke-dashoffset:0;stroke-opacity:1"
         d="M 310.13666,152.70573 C 311.0225,156.42287 314.27976,159.18758 318.23202,159.18758 L 418.21056,159.18758 C 422.84632,159.18758 426.57212,155.41665 426.57211,150.72473 L 426.57211,122.13486 C 426.57211,119.90708 425.71296,117.90681 424.33296,116.39787 C 424.11506,116.81017 424.2139,116.71037 423.92585,117.20612 C 423.25413,118.36222 422.38978,119.73448 421.29525,121.23153 C 420.20072,122.72857 418.87767,124.35355 417.30237,126.03348 C 416.51472,126.87345 415.65311,127.72896 414.73441,128.58501 C 413.81569,129.44107 412.832,130.30001 411.77498,131.15239 C 410.71795,132.00478 409.59534,132.84328 408.39277,133.67223 C 407.1902,134.50119 405.91185,135.32707 404.55648,136.11283 C 403.20111,136.8986 401.76584,137.65629 400.25044,138.3791 C 398.73502,139.10193 397.14168,139.78339 395.45898,140.4235 C 393.77627,141.06362 392.00804,141.66082 390.1508,142.19848 C 388.29356,142.73614 386.34926,143.20937 384.31024,143.6248 C 382.48716,143.99625 380.71548,144.27278 379.00206,144.46475 C 377.28864,144.65672 375.62845,144.76707 374.00705,144.8134 C 372.38564,144.85974 370.80962,144.84718 369.26257,144.78171 C 367.71552,144.71625 366.19633,144.60817 364.70599,144.46475 C 361.72531,144.17791 358.84404,143.7669 355.9843,143.37123 C 353.12455,142.97557 350.28354,142.59076 347.40352,142.35696 C 345.96351,142.24007 344.52205,142.16076 343.0505,142.13509 C 341.57895,142.10942 340.0773,142.13079 338.55655,142.23017 C 337.03581,142.32956 335.49362,142.51073 333.90603,142.76901 C 332.31844,143.02729 330.69271,143.36396 329.02063,143.81498 C 327.34854,144.266 325.62761,144.81727 323.85337,145.49487 C 322.07914,146.17247 320.25132,146.98162 318.35729,147.91962 C 316.46326,148.85762 314.50123,149.93622 312.46976,151.16847 C 311.72052,151.62294 310.90624,152.20808 310.13666,152.70573 z"
         id="path3830" />
      <rect
         style="opacity:0.98999999;fill:none;fill-opacity:1;stroke:#729fcf;stroke-width:2.22803569;stroke-linecap:butt;stroke-linejoin:round;stroke-miterlimit:4;stroke-dasharray:none;stroke-dashoffset:0;stroke-opacity:1"
         id="rect3836"
         width="116.89158"
         height="45.806046"
         x="310.47562"
         y="113.64001"
         ry="8.2924442"
         rx="8.2924442" />
      <text
         id="text3927"
         y="142.63316"
         x="333.17703"
         style="font-size:22px;font-style:normal;font-weight:normal;fill:#000000;fill-opacity:1;stroke:none;stroke-width:1px;stroke-linecap:butt;stroke-linejoin:miter;stroke-opacity:1;font-family:Bitstream Vera Sans"
         xml:space="preserve"><tspan
           y="142.63316"
           x="333.17703"
           id="tspan3929"
           sodipodi:role="line">Règles</tspan></text>
    </g>
    <g
       id="g4767"
       transform="translate(27.142857,447.14285)">
      <rect
         transform="matrix(1.0920248,0,0,0.5379295,60.906548,169.78561)"
         rx="20"
         ry="20.000004"
         y="48.602943"
         x="351.44357"
         height="101.01526"
         width="245.04866"
         id="rect3931"
         style="opacity:0.98999999;fill:#555753;fill-opacity:1;stroke:#555753;stroke-width:7.08700037;stroke-linecap:butt;stroke-linejoin:round;stroke-miterlimit:4;stroke-dasharray:none;stroke-dashoffset:0;stroke-opacity:1;filter:url(#filter4523)" />
      <rect
         style="opacity:0.98999999;fill:url(#linearGradient4807);fill-opacity:1;stroke:#3465a4;stroke-width:2;stroke-linecap:butt;stroke-linejoin:round;stroke-miterlimit:4;stroke-dasharray:none;stroke-dashoffset:0;stroke-opacity:1"
         id="rect3933"
         width="267.59921"
         height="54.339092"
         x="440.29321"
         y="193.76393"
         ry="10.758594"
         rx="21.840496" />
      <path
         style="opacity:0.78299118;fill:#ffffff;fill-opacity:0.14369501;stroke:none;stroke-width:7.08700085;stroke-linecap:butt;stroke-linejoin:round;stroke-miterlimit:4;stroke-dashoffset:0;stroke-opacity:1"
         d="M 445.20291,238.44296 C 447.15106,242.46984 454.31446,245.46492 463.0063,245.46492 L 682.87997,245.46492 C 693.07498,245.46492 701.26879,241.37977 701.26877,236.29689 L 701.26877,205.32473 C 701.26877,202.91132 699.37932,200.74437 696.34441,199.1097 C 695.8652,199.55635 696.08257,199.44824 695.44909,199.9853 C 693.97184,201.23773 692.07095,202.72434 689.66385,204.34613 C 687.25675,205.96791 684.34709,207.7283 680.88268,209.54821 C 679.15047,210.45817 677.25561,211.38497 675.2352,212.31235 C 673.21474,213.23974 671.0514,214.17025 668.72679,215.09366 C 666.40216,216.01708 663.93331,216.92545 661.28861,217.82347 C 658.6439,218.7215 655.83254,219.6162 652.8518,220.46744 C 649.87106,221.31868 646.7146,222.13951 643.38192,222.92255 C 640.0492,223.70561 636.54511,224.44385 632.8445,225.1373 C 629.14387,225.83076 625.25516,226.47772 621.17071,227.06018 C 617.08625,227.64264 612.81033,228.1553 608.3261,228.60535 C 604.31676,229.00775 600.42047,229.30732 596.6523,229.51529 C 592.88413,229.72326 589.23303,229.8428 585.66723,229.89299 C 582.10141,229.94319 578.63542,229.92959 575.23313,229.85866 C 571.83084,229.78775 568.48983,229.67066 565.21226,229.51529 C 558.65712,229.20455 552.32061,228.75929 546.03144,228.33065 C 539.74226,227.90202 533.49428,227.48515 527.16052,227.23187 C 523.99363,227.10524 520.82356,227.01932 517.58732,226.99151 C 514.35107,226.9637 511.04863,226.98685 507.70418,227.09451 C 504.35976,227.20218 500.96816,227.39845 497.47672,227.67825 C 493.98528,227.95805 490.40996,228.32278 486.73271,228.81138 C 483.05543,229.29998 479.27075,229.89719 475.36882,230.63125 C 471.46692,231.36531 467.44716,232.24188 463.2818,233.25804 C 459.11643,234.2742 454.80152,235.44268 450.33389,236.77761 C 448.68615,237.26995 446.89538,237.90385 445.20291,238.44296 z"
         id="path3935" />
      <rect
         style="opacity:0.98999999;fill:none;fill-opacity:1;stroke:#729fcf;stroke-width:0.23899999;stroke-linecap:butt;stroke-linejoin:round;stroke-miterlimit:4;stroke-dasharray:none;stroke-dashoffset:0;stroke-opacity:1"
         id="rect3937"
         width="257.06897"
         height="49.622902"
         x="445.94833"
         y="196.12204"
         ry="8.9834242"
         rx="18.236814" />
      <text
         id="text3939"
         y="215.57684"
         x="497.97699"
         style="font-size:20px;font-style:normal;font-weight:normal;fill:#000000;fill-opacity:1;stroke:none;stroke-width:1px;stroke-linecap:butt;stroke-linejoin:miter;stroke-opacity:1;font-family:Bitstream Vera Sans"
         xml:space="preserve"><tspan
           y="215.57684"
           x="497.97699"
           id="tspan3941"
           sodipodi:role="line">Fonction d'éval</tspan><tspan
           id="tspan3945"
           y="240.57684"
           x="497.97699"
           sodipodi:role="line">d'un plateau</tspan></text>
    </g>
    <g
       id="g4747"
       transform="translate(24.285713,-5.7142866)">
      <rect
         transform="matrix(2.9067952,0,0,1.9876509,-602.77206,-636.14781)"
         rx="48.240463"
         ry="48.240463"
         y="482.82111"
         x="223.58255"
         height="96.480927"
         width="96.480927"
         id="rect4827"
         style="opacity:0.98999999;fill:#555753;fill-opacity:1;fill-rule:nonzero;stroke:#555753;stroke-width:3.51907492;stroke-linecap:butt;stroke-linejoin:round;marker:none;marker-start:none;marker-mid:none;marker-end:none;stroke-miterlimit:4;stroke-dasharray:none;stroke-dashoffset:0;stroke-opacity:1;visibility:visible;display:inline;overflow:visible;filter:url(#filter4523);enable-background:accumulate" />
      <rect
         rx="140.22514"
         ry="95.885201"
         y="319.55673"
         x="41.323032"
         height="191.7704"
         width="280.45029"
         id="rect4355"
         style="opacity:0.98999999;fill:url(#linearGradient4733);fill-opacity:1;stroke:#3465a4;stroke-width:3;stroke-linecap:butt;stroke-linejoin:round;stroke-miterlimit:4;stroke-dasharray:none;stroke-dashoffset:0;stroke-opacity:1" />
      <path
         id="path4363"
         d="M 48.357359,412.75208 C 48.038979,413.12319 47.758029,413.49749 47.448979,413.87013 L 47.448979,417.96966 C 47.448979,467.38288 107.22917,507.16548 181.52491,507.1655 C 189.76448,507.1655 197.86619,506.61217 205.68765,505.67476 L 221.49335,503.12808 L 222.12921,503.00385 C 267.03661,493.58982 301.60453,468.94571 312.23986,438.09463 C 309.64153,437.55367 307.08759,437.10989 304.60952,436.72812 C 299.75683,435.98048 295.18906,435.51032 290.71141,435.36161 C 286.23372,435.21291 281.89783,435.32591 277.72167,435.67218 C 273.5455,436.01849 269.49747,436.6119 265.54946,437.34926 C 261.60145,438.08666 257.80648,438.99555 254.01312,440.02016 C 246.42653,442.06937 239.0755,444.52647 231.66713,447.10117 C 224.25881,449.67583 216.7753,452.34793 208.95779,454.61698 C 205.049,455.75145 200.99753,456.75833 196.87642,457.66057 C 192.75517,458.56282 188.47541,459.33059 184.06836,459.89667 C 179.66131,460.46274 175.11819,460.82658 170.35192,460.95261 C 165.58556,461.07861 160.65372,461.05999 155.45459,460.64204 C 149.63972,460.17463 143.97691,459.41968 138.55885,458.46805 C 133.14072,457.51648 127.96058,456.357 122.93482,454.98966 C 117.90915,453.62239 113.1295,452.04569 108.49168,450.3311 C 103.85389,448.61656 99.393069,446.79628 95.138589,444.80295 C 90.884179,442.80957 86.841729,440.60891 82.966389,438.4052 C 79.090959,436.20153 75.385059,433.91829 71.884229,431.57265 C 68.383349,429.227 65.113669,426.78644 61.982959,424.36741 C 58.852229,421.94828 55.755179,419.58624 52.990059,417.16218 C 51.337319,415.71328 49.881299,414.18183 48.357359,412.75208 z"
         style="opacity:0.78299118;fill:#ffffff;fill-opacity:0.14369501;stroke:none;stroke-width:7.08700085;stroke-linecap:butt;stroke-linejoin:round;stroke-miterlimit:4;stroke-dashoffset:0;stroke-opacity:1" />
      <rect
         rx="134.65427"
         ry="89.193535"
         y="323.73972"
         x="47.440311"
         height="183.40445"
         width="268.2157"
         id="rect4365"
         style="opacity:0.98999999;fill:none;fill-opacity:1;stroke:#729fcf;stroke-width:5.35549259;stroke-linecap:butt;stroke-linejoin:round;stroke-miterlimit:4;stroke-dasharray:none;stroke-dashoffset:0;stroke-opacity:1" />
      <text
         id="text4735"
         y="393.74274"
         x="179.80713"
         style="font-size:22px;font-style:normal;font-weight:normal;text-align:center;text-anchor:middle;fill:#000000;fill-opacity:1;stroke:none;stroke-width:1px;stroke-linecap:butt;stroke-linejoin:miter;stroke-opacity:1;font-family:Bitstream Vera Sans"
         xml:space="preserve"><tspan
           y="393.74274"
           x="179.80713"
           id="tspan4737"
           sodipodi:role="line">Ensemble</tspan><tspan
           id="tspan4739"
           y="421.24274"
           x="179.80713"
           sodipodi:role="line"> des coups possibles</tspan><tspan
           id="tspan4741"
           y="448.74274"
           x="179.80713"
           sodipodi:role="line">sur une profondeur n</tspan></text>
    </g>
    <g
       id="g4796"
       transform="translate(-365.71429,18.571429)">
      <rect
         transform="matrix(1.0920248,0,0,0.5379295,55.185144,592.1302)"
         rx="20"
         ry="20.000004"
         y="48.602943"
         x="351.44357"
         height="101.01526"
         width="245.04866"
         id="rect4776"
         style="opacity:0.98999999;fill:#555753;fill-opacity:1;stroke:#555753;stroke-width:7.08700037;stroke-linecap:butt;stroke-linejoin:round;stroke-miterlimit:4;stroke-dasharray:none;stroke-dashoffset:0;stroke-opacity:1;filter:url(#filter4523)" />
      <rect
         style="opacity:0.98999999;fill:url(#linearGradient4805);fill-opacity:1;stroke:#3465a4;stroke-width:2;stroke-linecap:butt;stroke-linejoin:round;stroke-miterlimit:4;stroke-dasharray:none;stroke-dashoffset:0;stroke-opacity:1"
         id="rect4778"
         width="267.59921"
         height="54.339092"
         x="434.57178"
         y="616.10852"
         ry="10.758594"
         rx="21.840496" />
      <path
         style="opacity:0.78299118;fill:#ffffff;fill-opacity:0.14369501;stroke:none;stroke-width:7.08700085;stroke-linecap:butt;stroke-linejoin:round;stroke-miterlimit:4;stroke-dashoffset:0;stroke-opacity:1"
         d="M 439.4815,660.78755 C 441.42965,664.81443 448.59305,667.80951 457.28489,667.80951 L 677.15856,667.80951 C 687.35357,667.80951 695.54738,663.72436 695.54736,658.64148 L 695.54736,627.66932 C 695.54736,625.25591 693.65791,623.08896 690.623,621.45429 C 690.14379,621.90094 690.36116,621.79283 689.72768,622.32989 C 688.25043,623.58232 686.34954,625.06893 683.94244,626.69072 C 681.53534,628.3125 678.62568,630.07289 675.16127,631.8928 C 673.42906,632.80276 671.5342,633.72956 669.51379,634.65694 C 667.49333,635.58433 665.32999,636.51484 663.00538,637.43825 C 660.68075,638.36167 658.2119,639.27004 655.5672,640.16806 C 652.92249,641.06609 650.11113,641.96079 647.13039,642.81203 C 644.14965,643.66327 640.99319,644.4841 637.66051,645.26714 C 634.32779,646.0502 630.8237,646.78844 627.12309,647.48189 C 623.42246,648.17535 619.53375,648.82231 615.4493,649.40477 C 611.36484,649.98723 607.08892,650.49989 602.60469,650.94994 C 598.59535,651.35234 594.69906,651.65191 590.93089,651.85988 C 587.16272,652.06785 583.51162,652.18739 579.94582,652.23758 C 576.38,652.28778 572.91401,652.27418 569.51172,652.20325 C 566.10943,652.13234 562.76842,652.01525 559.49085,651.85988 C 552.93571,651.54914 546.5992,651.10388 540.31003,650.67524 C 534.02085,650.24661 527.77287,649.82974 521.43911,649.57646 C 518.27222,649.44983 515.10215,649.36391 511.86591,649.3361 C 508.62966,649.30829 505.32722,649.33144 501.98277,649.4391 C 498.63835,649.54677 495.24675,649.74304 491.75531,650.02284 C 488.26387,650.30264 484.68855,650.66737 481.0113,651.15597 C 477.33402,651.64457 473.54934,652.24178 469.64741,652.97584 C 465.74551,653.7099 461.72575,654.58647 457.56039,655.60263 C 453.39502,656.61879 449.08011,657.78727 444.61248,659.1222 C 442.96474,659.61454 441.17397,660.24844 439.4815,660.78755 z"
         id="path4780" />
      <rect
         style="opacity:0.98999999;fill:none;fill-opacity:1;stroke:#729fcf;stroke-width:0.23899999;stroke-linecap:butt;stroke-linejoin:round;stroke-miterlimit:4;stroke-dasharray:none;stroke-dashoffset:0;stroke-opacity:1"
         id="rect4782"
         width="257.06897"
         height="49.622902"
         x="440.22693"
         y="618.46667"
         ry="8.9834242"
         rx="18.236814" />
      <text
         id="text4784"
         y="636.49286"
         x="572.25555"
         style="font-size:20px;font-style:normal;font-weight:normal;text-align:center;text-anchor:middle;fill:#000000;fill-opacity:1;stroke:none;stroke-width:1px;stroke-linecap:butt;stroke-linejoin:miter;stroke-opacity:1;font-family:Bitstream Vera Sans"
         xml:space="preserve"><tspan
           id="tspan4788"
           y="636.49286"
           x="572.25555"
           sodipodi:role="line">Séléction du meilleur</tspan><tspan
           id="tspan4794"
           y="661.49286"
           x="572.25555"
           sodipodi:role="line">coup</tspan></text>
    </g>
    <g
       id="g4832"
       transform="matrix(0,-1,1,0,-636.6479,1358.0764)">
      <path
         sodipodi:nodetypes="ccc"
         id="path4834"
         d="M 584.37876,837.97423 L 657.44406,837.97423 L 656.32006,837.75886"
         style="fill:none;fill-opacity:1;fill-rule:evenodd;stroke:#000000;stroke-width:4;stroke-linecap:round;stroke-linejoin:round;marker:none;marker-start:none;marker-mid:none;marker-end:none;stroke-miterlimit:4;stroke-dasharray:none;stroke-dashoffset:0;stroke-opacity:1;visibility:visible;display:inline;overflow:visible;enable-background:accumulate" />
      <g
         transform="matrix(0.6099247,0,0,0.6099247,430.34965,495.03603)"
         id="g4836">
        <path
           style="opacity:0.98999999;fill:#292a28;fill-opacity:1;fill-rule:nonzero;stroke:#0c0e0e;stroke-width:1.89239657;stroke-linecap:butt;stroke-linejoin:round;marker:none;marker-start:none;marker-mid:none;marker-end:none;stroke-miterlimit:4;stroke-dashoffset:0;stroke-opacity:1;visibility:visible;display:inline;overflow:visible;enable-background:accumulate"
           d="M 252.17857,544.69643 L 209.74107,562.44643 L 252.17857,580.16518 L 252.17857,566.66518 C 254.24251,566.2046 255.77231,564.49457 255.77232,562.44643 C 255.77232,560.39831 254.24251,558.657 252.17857,558.19643 L 252.17857,544.69643 z"
           id="path4838" />
        <path
           style="fill:url(#linearGradient4844);fill-opacity:1;fill-rule:evenodd;stroke:none;stroke-width:1px;stroke-linecap:butt;stroke-linejoin:miter;stroke-opacity:1"
           d="M 213.83577,562.43941 C 240.26434,551.54655 251.03258,578.87818 251.03258,578.87818 L 213.83577,562.43941 z"
           id="path4840"
           sodipodi:nodetypes="ccc" />
        <path
           style="opacity:0.98999999;fill:none;fill-opacity:1;fill-rule:nonzero;stroke:#292a28;stroke-width:1.77562881;stroke-linecap:butt;stroke-linejoin:miter;marker:none;marker-start:none;marker-mid:none;marker-end:none;stroke-miterlimit:4;stroke-dasharray:none;stroke-dashoffset:0;stroke-opacity:1;visibility:visible;display:inline;overflow:visible;enable-background:accumulate"
           d="M 214.30475,562.44413 L 250.30941,547.42453 L 250.46948,577.81235 L 214.30475,562.44413 z"
           id="path4842"
           sodipodi:nodetypes="cccc" />
      </g>
    </g>
    <g
       id="g4846"
       transform="matrix(0,-1,1,0,-636.6479,1189.5051)">
      <path
         sodipodi:nodetypes="ccc"
         id="path4848"
         d="M 584.37876,837.97423 L 657.44406,837.97423 L 656.32006,837.75886"
         style="fill:none;fill-opacity:1;fill-rule:evenodd;stroke:#000000;stroke-width:4;stroke-linecap:round;stroke-linejoin:round;marker:none;marker-start:none;marker-mid:none;marker-end:none;stroke-miterlimit:4;stroke-dasharray:none;stroke-dashoffset:0;stroke-opacity:1;visibility:visible;display:inline;overflow:visible;enable-background:accumulate" />
      <g
         transform="matrix(0.6099247,0,0,0.6099247,430.34965,495.03603)"
         id="g4850">
        <path
           style="opacity:0.98999999;fill:#292a28;fill-opacity:1;fill-rule:nonzero;stroke:#0c0e0e;stroke-width:1.89239657;stroke-linecap:butt;stroke-linejoin:round;marker:none;marker-start:none;marker-mid:none;marker-end:none;stroke-miterlimit:4;stroke-dashoffset:0;stroke-opacity:1;visibility:visible;display:inline;overflow:visible;enable-background:accumulate"
           d="M 252.17857,544.69643 L 209.74107,562.44643 L 252.17857,580.16518 L 252.17857,566.66518 C 254.24251,566.2046 255.77231,564.49457 255.77232,562.44643 C 255.77232,560.39831 254.24251,558.657 252.17857,558.19643 L 252.17857,544.69643 z"
           id="path4852" />
        <path
           style="fill:url(#linearGradient4858);fill-opacity:1;fill-rule:evenodd;stroke:none;stroke-width:1px;stroke-linecap:butt;stroke-linejoin:miter;stroke-opacity:1"
           d="M 213.83577,562.43941 C 240.26434,551.54655 251.03258,578.87818 251.03258,578.87818 L 213.83577,562.43941 z"
           id="path4854"
           sodipodi:nodetypes="ccc" />
        <path
           style="opacity:0.98999999;fill:none;fill-opacity:1;fill-rule:nonzero;stroke:#292a28;stroke-width:1.77562881;stroke-linecap:butt;stroke-linejoin:miter;marker:none;marker-start:none;marker-mid:none;marker-end:none;stroke-miterlimit:4;stroke-dasharray:none;stroke-dashoffset:0;stroke-opacity:1;visibility:visible;display:inline;overflow:visible;enable-background:accumulate"
           d="M 214.30475,562.44413 L 250.30941,547.42453 L 250.46948,577.81235 L 214.30475,562.44413 z"
           id="path4856"
           sodipodi:nodetypes="cccc" />
      </g>
    </g>
    <g
       id="g4889"
       transform="translate(-14.285714,14.285714)">
      <rect
         transform="matrix(1.0920248,0,0,0.5379295,-107.672,116.41591)"
         rx="20"
         ry="20.000004"
         y="48.602943"
         x="351.44357"
         height="101.01526"
         width="245.04866"
         id="rect4862"
         style="opacity:0.98999999;fill:#555753;fill-opacity:1;stroke:#555753;stroke-width:7.08700037;stroke-linecap:butt;stroke-linejoin:round;stroke-miterlimit:4;stroke-dasharray:none;stroke-dashoffset:0;stroke-opacity:1;filter:url(#filter4523)" />
      <rect
         style="opacity:0.98999999;fill:url(#linearGradient4897);fill-opacity:1;stroke:#3465a4;stroke-width:2;stroke-linecap:butt;stroke-linejoin:round;stroke-miterlimit:4;stroke-dasharray:none;stroke-dashoffset:0;stroke-opacity:1"
         id="rect4864"
         width="267.59921"
         height="54.339092"
         x="271.71466"
         y="140.39424"
         ry="10.758594"
         rx="21.840496" />
      <path
         style="opacity:0.78299118;fill:#ffffff;fill-opacity:0.14369501;stroke:none;stroke-width:7.08700085;stroke-linecap:butt;stroke-linejoin:round;stroke-miterlimit:4;stroke-dashoffset:0;stroke-opacity:1"
         d="M 276.62436,185.07326 C 278.57251,189.10014 285.73591,192.09522 294.42775,192.09522 L 514.30142,192.09522 C 524.49643,192.09522 532.69024,188.01007 532.69022,182.92719 L 532.69022,151.95503 C 532.69022,149.54162 530.80077,147.37467 527.76586,145.74 C 527.28665,146.18665 527.50402,146.07854 526.87054,146.6156 C 525.39329,147.86803 523.4924,149.35464 521.0853,150.97643 C 518.6782,152.59821 515.76854,154.3586 512.30413,156.17851 C 510.57192,157.08847 508.67706,158.01527 506.65665,158.94265 C 504.63619,159.87004 502.47285,160.80055 500.14824,161.72396 C 497.82361,162.64738 495.35476,163.55575 492.71006,164.45377 C 490.06535,165.3518 487.25399,166.2465 484.27325,167.09774 C 481.29251,167.94898 478.13605,168.76981 474.80337,169.55285 C 471.47065,170.33591 467.96656,171.07415 464.26595,171.7676 C 460.56532,172.46106 456.67661,173.10802 452.59216,173.69048 C 448.5077,174.27294 444.23178,174.7856 439.74755,175.23565 C 435.73821,175.63805 431.84192,175.93762 428.07375,176.14559 C 424.30558,176.35356 420.65448,176.4731 417.08868,176.52329 C 413.52286,176.57349 410.05687,176.55989 406.65458,176.48896 C 403.25229,176.41805 399.91128,176.30096 396.63371,176.14559 C 390.07857,175.83485 383.74206,175.38959 377.45289,174.96095 C 371.16371,174.53232 364.91573,174.11545 358.58197,173.86217 C 355.41508,173.73554 352.24501,173.64962 349.00877,173.62181 C 345.77252,173.594 342.47008,173.61715 339.12563,173.72481 C 335.78121,173.83248 332.38961,174.02875 328.89817,174.30855 C 325.40673,174.58835 321.83141,174.95308 318.15416,175.44168 C 314.47688,175.93028 310.6922,176.52749 306.79027,177.26155 C 302.88837,177.99561 298.86861,178.87218 294.70325,179.88834 C 290.53788,180.9045 286.22297,182.07298 281.75534,183.40791 C 280.1076,183.90025 278.31683,184.53415 276.62436,185.07326 z"
         id="path4866" />
      <rect
         style="opacity:0.98999999;fill:none;fill-opacity:1;stroke:#729fcf;stroke-width:0.23899999;stroke-linecap:butt;stroke-linejoin:round;stroke-miterlimit:4;stroke-dasharray:none;stroke-dashoffset:0;stroke-opacity:1"
         id="rect4868"
         width="257.06897"
         height="49.622902"
         x="277.36978"
         y="142.75235"
         ry="8.9834242"
         rx="18.236814" />
      <text
         id="text4870"
         y="175.0643"
         x="345.11273"
         style="font-size:20px;font-style:normal;font-weight:normal;fill:#000000;fill-opacity:1;stroke:none;stroke-width:1px;stroke-linecap:butt;stroke-linejoin:miter;stroke-opacity:1;font-family:Bitstream Vera Sans"
         xml:space="preserve"><tspan
           id="tspan4874"
           y="175.0643"
           x="345.11273"
           sodipodi:role="line">Etat actuel</tspan></text>
    </g>
    <g
       id="g4899"
       transform="matrix(-0.3420202,-0.9396927,0.9396927,-0.3420202,-427.92457,1122.7222)">
      <path
         sodipodi:nodetypes="ccc"
         id="path4901"
         d="M 584.37876,837.97423 L 657.44406,837.97423 L 656.32006,837.75886"
         style="fill:none;fill-opacity:1;fill-rule:evenodd;stroke:#000000;stroke-width:4;stroke-linecap:round;stroke-linejoin:round;marker:none;marker-start:none;marker-mid:none;marker-end:none;stroke-miterlimit:4;stroke-dasharray:none;stroke-dashoffset:0;stroke-opacity:1;visibility:visible;display:inline;overflow:visible;enable-background:accumulate" />
      <g
         transform="matrix(0.6099247,0,0,0.6099247,430.34965,495.03603)"
         id="g4903">
        <path
           style="opacity:0.98999999;fill:#292a28;fill-opacity:1;fill-rule:nonzero;stroke:#0c0e0e;stroke-width:1.89239657;stroke-linecap:butt;stroke-linejoin:round;marker:none;marker-start:none;marker-mid:none;marker-end:none;stroke-miterlimit:4;stroke-dashoffset:0;stroke-opacity:1;visibility:visible;display:inline;overflow:visible;enable-background:accumulate"
           d="M 252.17857,544.69643 L 209.74107,562.44643 L 252.17857,580.16518 L 252.17857,566.66518 C 254.24251,566.2046 255.77231,564.49457 255.77232,562.44643 C 255.77232,560.39831 254.24251,558.657 252.17857,558.19643 L 252.17857,544.69643 z"
           id="path4905" />
        <path
           style="fill:url(#linearGradient4911);fill-opacity:1;fill-rule:evenodd;stroke:none;stroke-width:1px;stroke-linecap:butt;stroke-linejoin:miter;stroke-opacity:1"
           d="M 213.83577,562.43941 C 240.26434,551.54655 251.03258,578.87818 251.03258,578.87818 L 213.83577,562.43941 z"
           id="path4907"
           sodipodi:nodetypes="ccc" />
        <path
           style="opacity:0.98999999;fill:none;fill-opacity:1;fill-rule:nonzero;stroke:#292a28;stroke-width:1.77562881;stroke-linecap:butt;stroke-linejoin:miter;marker:none;marker-start:none;marker-mid:none;marker-end:none;stroke-miterlimit:4;stroke-dasharray:none;stroke-dashoffset:0;stroke-opacity:1;visibility:visible;display:inline;overflow:visible;enable-background:accumulate"
           d="M 214.30475,562.44413 L 250.30941,547.42453 L 250.46948,577.81235 L 214.30475,562.44413 z"
           id="path4909"
           sodipodi:nodetypes="cccc" />
      </g>
    </g>
    <g
       id="g4913"
       transform="matrix(0.5000001,-0.8660255,0.8660255,0.5000001,-685.79217,382.22104)">
      <path
         sodipodi:nodetypes="ccc"
         id="path4915"
         d="M 584.37876,837.97423 L 657.44406,837.97423 L 656.32006,837.75886"
         style="fill:none;fill-opacity:1;fill-rule:evenodd;stroke:#000000;stroke-width:4;stroke-linecap:round;stroke-linejoin:round;marker:none;marker-start:none;marker-mid:none;marker-end:none;stroke-miterlimit:4;stroke-dasharray:none;stroke-dashoffset:0;stroke-opacity:1;visibility:visible;display:inline;overflow:visible;enable-background:accumulate" />
      <g
         transform="matrix(0.6099247,0,0,0.6099247,430.34965,495.03603)"
         id="g4917">
        <path
           style="opacity:0.98999999;fill:#292a28;fill-opacity:1;fill-rule:nonzero;stroke:#0c0e0e;stroke-width:1.89239657;stroke-linecap:butt;stroke-linejoin:round;marker:none;marker-start:none;marker-mid:none;marker-end:none;stroke-miterlimit:4;stroke-dashoffset:0;stroke-opacity:1;visibility:visible;display:inline;overflow:visible;enable-background:accumulate"
           d="M 252.17857,544.69643 L 209.74107,562.44643 L 252.17857,580.16518 L 252.17857,566.66518 C 254.24251,566.2046 255.77231,564.49457 255.77232,562.44643 C 255.77232,560.39831 254.24251,558.657 252.17857,558.19643 L 252.17857,544.69643 z"
           id="path4919" />
        <path
           style="fill:url(#linearGradient4925);fill-opacity:1;fill-rule:evenodd;stroke:none;stroke-width:1px;stroke-linecap:butt;stroke-linejoin:miter;stroke-opacity:1"
           d="M 213.83577,562.43941 C 240.26434,551.54655 251.03258,578.87818 251.03258,578.87818 L 213.83577,562.43941 z"
           id="path4921"
           sodipodi:nodetypes="ccc" />
        <path
           style="opacity:0.98999999;fill:none;fill-opacity:1;fill-rule:nonzero;stroke:#292a28;stroke-width:1.77562881;stroke-linecap:butt;stroke-linejoin:miter;marker:none;marker-start:none;marker-mid:none;marker-end:none;stroke-miterlimit:4;stroke-dasharray:none;stroke-dashoffset:0;stroke-opacity:1;visibility:visible;display:inline;overflow:visible;enable-background:accumulate"
           d="M 214.30475,562.44413 L 250.30941,547.42453 L 250.46948,577.81235 L 214.30475,562.44413 z"
           id="path4923"
           sodipodi:nodetypes="cccc" />
      </g>
    </g>
    <g
       id="g4927"
       transform="matrix(-0.6099247,0,0,0.6099247,587.67833,325.03603)">
      <path
         id="path4929"
         d="M 252.17857,544.69643 L 209.74107,562.44643 L 252.17857,580.16518 L 252.17857,566.66518 C 254.24251,566.2046 255.77231,564.49457 255.77232,562.44643 C 255.77232,560.39831 254.24251,558.657 252.17857,558.19643 L 252.17857,544.69643 z"
         style="opacity:0.98999999;fill:#292a28;fill-opacity:1;fill-rule:nonzero;stroke:#0c0e0e;stroke-width:1.89239657;stroke-linecap:butt;stroke-linejoin:round;marker:none;marker-start:none;marker-mid:none;marker-end:none;stroke-miterlimit:4;stroke-dashoffset:0;stroke-opacity:1;visibility:visible;display:inline;overflow:visible;enable-background:accumulate" />
      <path
         sodipodi:nodetypes="ccc"
         id="path4931"
         d="M 213.83577,562.43941 C 240.26434,551.54655 251.03258,578.87818 251.03258,578.87818 L 213.83577,562.43941 z"
         style="fill:url(#linearGradient4935);fill-opacity:1;fill-rule:evenodd;stroke:none;stroke-width:1px;stroke-linecap:butt;stroke-linejoin:miter;stroke-opacity:1" />
      <path
         sodipodi:nodetypes="cccc"
         id="path4933"
         d="M 214.30475,562.44413 L 250.30941,547.42453 L 250.46948,577.81235 L 214.30475,562.44413 z"
         style="opacity:0.98999999;fill:none;fill-opacity:1;fill-rule:nonzero;stroke:#292a28;stroke-width:1.77562881;stroke-linecap:butt;stroke-linejoin:miter;marker:none;marker-start:none;marker-mid:none;marker-end:none;stroke-miterlimit:4;stroke-dasharray:none;stroke-dashoffset:0;stroke-opacity:1;visibility:visible;display:inline;overflow:visible;enable-background:accumulate" />
    </g>
  </g>
</svg>
