
INPUT BIN SEQ 1: 456 bits
01001010011110001010001000101010111101101101010001100110010000101111110111001111
00110101101000011000101010001000000110110010000010110111000101010110000101110110
01000001100110101011001110001011001111001000111100011111000010011100010010100100
00001001100011011011100101010011110110010111100011001011111110001100111010101010
10000000100101110111101111100011001001111000100111011011001110000111100110101001
10110001001111100000111011000101111110000001100000101110

BIT INTERLEAVED BIN SEQ 1: 456 bits
1 (57b): 001011001101110010000111010011011010111111010110011001100
2 (57b): 110011111100000000111000000010000111111000110010100001100
3 (57b): 011110101011000110110010100001001001010100111001111100101
4 (57b): 010011001010001011010110101000001111010001100011101100110
5 (57b): 110100001100111000000101111100111011111100100111110110111
6 (57b): 000011101110000011010000111011010000001001001000000111001
7 (57b): 101110110100101010010111011000000100101101111010000110001
8 (57b): 000000001111001011101011011100111110100001111110111001000

INPUT BIN SEQ 2: 456 bits
10001001100011111100000100101010100001111010110101100001100100011010011101101000
11100110011001101101111110011001100111110001001011001000110001101000000110100011
01100100110100100010100010110010011100100000110011110101000000011111010101011000
01011100101000110011011100001001101100001001100011000100011111001001110001001001
01011111011000101111001000010010001000111110001100010001101110010111101100000011
10100100001011000110100011001011100011101111111000111010

BIT INTERLEAVED BIN SEQ 2: 456 bits
1 (57b): 111011011010111011110101001010010011101000100101001001110
2 (57b): 001000100111100011001100101011100000110111100100100011010
3 (57b): 000101101111000000011011101010011010010001101101101110011
4 (57b): 000000010000111100000101101011101011011010110011100000011
5 (57b): 110101000100111010000010010001100101011110000001100111111
6 (57b): 010011001011101001001000011010101000111010000000001100110
7 (57b): 010110001011101101010101100000011000000011111100110001111
8 (57b): 111011111000111000110000001110011100000110001111110001000

INPUT BIN SEQ 3: 456 bits
01011111001110100111011001001101011100100000111001010010010100001010101000111011
10011100100101010110100010110010111010000011010011011101011110110111010110111010
00011011001100010110111010111100001100000000111000111101100110100101000111101011
01001111110000101000100111100111100110010001000110101011011001010011101100010110
11011011001001110110010101011011100001001001000111101010001001010110010010100000
11100111010010001000000010000111110010010011000111101010

BIT INTERLEAVED BIN SEQ 3: 456 bits
1 (57b): 000000001011011010010001000101011110100010001110011011101
2 (57b): 101110110000101011100010000011110100010010110010101100101
3 (57b): 011010001100111101110111101001000100111001100011111000011
4 (57b): 111010110111010111111101101110000011001110010100000000010
5 (57b): 110101001110101011011011011101101010101010010010000100101
6 (57b): 101101000011000110100011011000100100010101101001101001000
7 (57b): 111011101100010001011010010101110100101111010010001001001
8 (57b): 100100000101000011101100001011101111111011110101001001110

INPUT BIN SEQ 4: 456 bits
10011001001101011011100100001111001000111100011110111111110001100000101010100000
11101000101001011111001010011101010001000010011001000010001111011011001100010110
11001101101101110100101101000001100010101110110111011111101010011100111111001010
00000101110100011000001010000110111110110011010010110000110110101010111010011011
00000001111011111010110011101001011110010010110111000000000010000011000110111111
00111001110111011011010000111001100111010001110101000001

BIT INTERLEAVED BIN SEQ 4: 456 bits
1 (57b): 101001110111110000101100111111011110111101110010010110100
2 (57b): 000001010010101010001011011011010010010001011010000100001
3 (57b): 011010100111100101100100010100000011101001111100111011000
4 (57b): 111000100000110001110100001000010011110100001000111111110
5 (57b): 101100101010010001001010111111000010011101111101011101110
6 (57b): 010101110001011101011100011010100101001001100100010110110
7 (57b): 000111111000100110110110101011001110011101000000010000000
8 (57b): 111111100001010001101111011110110010000111011100111101111

################################################################################

TDMA 01 			 1184b
SLOT 2: 			 148b
tail				 3b:	 111
half-burst 1			 57b:	 000000000000000000000000000001101010100100101111100101010
sbit + training seq + sbint 	 28b:	 1101111010000010111001011011
half-burst 2 			 57b:	 000000000000000000000000000000010111000111011001111101010
tail				 3b:	 111
                

TDMA 02 			 1184b
SLOT 2: 			 148b
tail				 3b:	 111
half-burst 1			 57b:	 000000000000000000000000000010111000011000100111010110010
sbit + training seq + sbint 	 28b:	 1101111010000010111001011011
half-burst 2 			 57b:	 000000000000000000000000000001011100001000000111001000010
tail				 3b:	 111
                

TDMA 03 			 1184b
SLOT 2: 			 148b
tail				 3b:	 111
half-burst 1			 57b:	 000000000000000000000000000001111100110110001000011011011
sbit + training seq + sbint 	 28b:	 1101111010000010111001011011
half-burst 2 			 57b:	 000000000000000000000000000001100010101000010011101011100
tail				 3b:	 111
                

TDMA 04 			 1184b
SLOT 2: 			 148b
tail				 3b:	 111
half-burst 1			 57b:	 000000000000000000000000000000101101100111001100010111010
sbit + training seq + sbint 	 28b:	 1101111010000010111001011011
half-burst 2 			 57b:	 000000000000000000000000000001010000011100000111010010101
tail				 3b:	 111
                

TDMA 05 			 1184b
SLOT 2: 			 148b
tail				 3b:	 111
half-burst 1			 57b:	 110010100011110101110011110111101111110001100111010001010
sbit + training seq + sbint 	 28b:	 1101111010000010111001011011
half-burst 2 			 57b:	 100010110000110111110101101111011001011110001010000110011
tail				 3b:	 111
                

TDMA 06 			 1184b
SLOT 2: 			 148b
tail				 3b:	 111
half-burst 1			 57b:	 001010001100101100001000011001010110101011110010110010100
sbit + training seq + sbint 	 28b:	 1101111010000010111001011011
half-burst 2 			 57b:	 001111001000111000010010001010000110010100010001110100011
tail				 3b:	 111
                

TDMA 07 			 1184b
SLOT 2: 			 148b
tail				 3b:	 111
half-burst 1			 57b:	 010110000111100010011100010000011100001111101100011011101
sbit + training seq + sbint 	 28b:	 1101111010000010111001011011
half-burst 2 			 57b:	 111100111001010000110111001010110110001010001001010110101
tail				 3b:	 111
                

TDMA 08 			 1184b
SLOT 2: 			 148b
tail				 3b:	 111
half-burst 1			 57b:	 000011001001110110001110101000000011000011111101110110001
sbit + training seq + sbint 	 28b:	 1101111010000010111001011011
half-burst 2 			 57b:	 000011011111010111100111110000001001100110010011001010001
tail				 3b:	 111
                

TDMA 09 			 1184b
SLOT 2: 			 148b
tail				 3b:	 111
half-burst 1			 57b:	 111010100000101011110001011100001101100000001110101101111
sbit + training seq + sbint 	 28b:	 1101111010000010111001011011
half-burst 2 			 57b:	 100000111001000100011000101110000011001010111100000101010
tail				 3b:	 111
                

TDMA 10 			 1184b
SLOT 2: 			 148b
tail				 3b:	 111
half-burst 1			 57b:	 101001001000100000100000010111110011110100110000110111011
sbit + training seq + sbint 	 28b:	 1101111010000010111001011011
half-burst 2 			 57b:	 001011110010011110111000010100101000010000011101001000100
tail				 3b:	 111
                

TDMA 11 			 1184b
SLOT 2: 			 148b
tail				 3b:	 111
half-burst 1			 57b:	 110001011111000100001110101101101011010111000011010111001
sbit + training seq + sbint 	 28b:	 1101111010000010111001011011
half-burst 2 			 57b:	 001011110000100010001110100111000101111110010101010011001
tail				 3b:	 111
                

TDMA 12 			 1184b
SLOT 2: 			 148b
tail				 3b:	 111
half-burst 1			 57b:	 101100100100010110010011101011110100111011100101100000000
sbit + training seq + sbint 	 28b:	 1101111010000010111001011011
half-burst 2 			 57b:	 111110110100011010001011100001001111111110100010101100001
tail				 3b:	 111
                

TDMA 13 			 1184b
SLOT 2: 			 148b
tail				 3b:	 111
half-burst 1			 57b:	 111010001101111000000100010011010110011011101111010100110
sbit + training seq + sbint 	 28b:	 1101111010000010111001011011
half-burst 2 			 57b:	 100011111011010111111001000110011111000101111101111001100
tail				 3b:	 111
                

TDMA 14 			 1184b
SLOT 2: 			 148b
tail				 3b:	 111
half-burst 1			 57b:	 011001010001100010111001001000000111101101100100001100001
sbit + training seq + sbint 	 28b:	 1101111010000010111001011011
half-burst 2 			 57b:	 110001001101010100000110110000011000000011011001011000100
tail				 3b:	 111
                

TDMA 15 			 1184b
SLOT 2: 			 148b
tail				 3b:	 111
half-burst 1			 57b:	 101010101100111110011100001001110110010000000111011011100
sbit + training seq + sbint 	 28b:	 1101111010000010111001011011
half-burst 2 			 57b:	 111110000011000100111001010011000110110101100010011101010
tail				 3b:	 111
                

TDMA 16 			 1184b
SLOT 2: 			 148b
tail				 3b:	 111
half-burst 1			 57b:	 010011001010001011101111001111010010010001000110001011110
sbit + training seq + sbint 	 28b:	 1101111010000010111001011011
half-burst 2 			 57b:	 100000001110011111111100010101000001011100001011100001111
tail				 3b:	 111
                

TDMA 17 			 1184b
SLOT 2: 			 148b
tail				 3b:	 111
half-burst 1			 57b:	 010000101000111000111111111100000000000000000000000000000
sbit + training seq + sbint 	 28b:	 1101111010000010111001011011
half-burst 2 			 57b:	 110111000011111001010110010100000000000000000000000000000
tail				 3b:	 111
                

TDMA 18 			 1184b
SLOT 2: 			 148b
tail				 3b:	 111
half-burst 1			 57b:	 111101111110100011001010110100000000000000000000000000000
sbit + training seq + sbint 	 28b:	 1101111010000010111001011011
half-burst 2 			 57b:	 000100010010011100010100001100000000000000000000000000000
tail				 3b:	 111
                

TDMA 19 			 1184b
SLOT 2: 			 148b
tail				 3b:	 111
half-burst 1			 57b:	 011100010110001010111000100000000000000000000000000000000
sbit + training seq + sbint 	 28b:	 1101111010000010111001011011
half-burst 2 			 57b:	 001110101101111011010000000000000000000000000000000000000
tail				 3b:	 111
                

TDMA 20 			 1184b
SLOT 2: 			 148b
tail				 3b:	 111
half-burst 1			 57b:	 111001101011110100011110111100000000000000000000000000000
sbit + training seq + sbint 	 28b:	 1101111010000010111001011011
half-burst 2 			 57b:	 111100000111011101001010110110000000000000000000000000000
tail				 3b:	 111
                
################################################################################
TDMA 1 : 0 for correct bit, 1 for altered bit
00000000000000000000000000000000000000000000000000000000000000000000000000000000
00000000000000000000000000000000000000000000000000000000000000000000000000000000
00000000000000000000000000000000000000000000000000000000000000000000000000000000
00000000000000000000000000000000000000000000000000000000000000000000000000000000
00000000000000000000000000000000000000000000000000000000000000000000000000000000
00000000000000000000000000000000000000000000000000000000000000000000000000000000
00000000000000000000000000000000000000000000000000000000000000000000000000000000
00000000000000000000000000000000000000000000000000000000000000000000000000000000
00000000000000000000000000000000000000000000000000000000000000000000000000000000
00000000000000000000000000000000000000000000000000000000000000000000000000000000
00000000000000000000000000000000000000000000000000000000000000000000000000000000
00000000000000000000000000000000000000000000000000000000000000000000000000000000
00000000000000000000000000000000000000000000000000000000000000000000000000000000
00000000000000000000000000000000000000000000000000000000000000000000000000000000
0000000000000000000000000000000000000000000000000000000000000000

TDMA 2 : 0 for correct bit, 1 for altered bit
00000000000000000000000000000000000000000000000000000000000000000000000000000000
00000000000000000000000000000000000000000000000000000000000000000000000000000000
00000000000000000000000000000000000000000000000000000000000000000000000000000000
00000000000000000000000000000000000000000000000000000000000000000000000000000000
00000000000000000000000000000000000000000000000000000000000000000000000000000000
00000000000000000000000000000000000000000000000000000000000000000000000000000000
00000000000000000000000000000000000000000000000000000000000000000000000000000000
00000000000000000000000000000000000000000000000000000000000000000000000000000000
00000000000000000000000000000000000000000000000000000000000000000000000000000000
00000000000000000000000000000000000000000000000000000000000000000000000000000000
00000000000000000000000000000000000000000000000000000000000000000000000000000000
00000000000000000000000000000000000000000000000000000000000000000000000000000000
00000000000000000000000000000000000000000000000000000000000000000000000000000000
00000000000000000000000000000000000000000000000000000000000000000000000000000000
0000000000000000000000000000000000000000000000000000000000000000

TDMA 3 : 0 for correct bit, 1 for altered bit
00000000000000000000000000000000000000000000000000000000000000000000000000000000
00000000000000000000000000000000000000000000000000000000000000000000000000000000
00000000000000000000000000000000000000000000000000000000000000000000000000000000
00000000000000000000000000000000000000000000000000000000000000000000000000000000
00000000000000000000000000000000000000000000000000000000000000000000000000000000
00000000000000000000000000000000000000000000000000000000000000000000000000000000
00000000000000000000000000000000000000000000000000000000000000000000000000000000
00000000000000000000000000000000000000000000000000000000000000000000000000000000
00000000000000000000000000000000000000000000000000000000000000000000000000000000
00000000000000000000000000000000000000000000000000000000000000000000000000000000
00000000000000000000000000000000000000000000000000000000000000000000000000000000
00000000000000000000000000000000000000000000000000000000000000000000000000000000
00000000000000000000000000000000000000000000000000000000000000000000000000000000
00000000000000000000000000000000000000000000000000000000000000000000000000000000
0000000000000000000000000000000000000000000000000000000000000000

TDMA 4 : 0 for correct bit, 1 for altered bit
00000000000000000000000000000000000000000000000000000000000000000000000000000000
00000000000000000000000000000000000000000000000000000000000000000000000000000000
00000000000000000000000000000000000000000000000000000000000000000000000000000000
00000000000000000000000000000000000000000000000000000000000000000000000000000000
00000000000000000000000000000000000000000000000000000000000000000000000000000000
00000000000000000000000000000000000000000000000000000000000000000000000000000000
00000000000000000000000000000000000000000000000000000000000000000000000000000000
00000000000000000000000000000000000000000000000000000000000000000000000000000000
00000000000000000000000000000000000000000000000000000000000000000000000000000000
00000000000000000000000000000000000000000000000000000000000000000000000000000000
00000000000000000000000000000000000000000000000000000000000000000000000000000000
00000000000000000000000000000000000000000000000000000000000000000000000000000000
00000000000000000000000000000000000000000000000000000000000000000000000000000000
00000000000000000000000000000000000000000000000000000000000000000000000000000000
0000000000000000000000000000000000000000000000000000000000000000

TDMA 5 : 0 for correct bit, 1 for altered bit
00000000000000000000000000000000000000000000000000000000000000000000000000000000
00000000000000000000000000000000000000000000000000000000000000000000000000000000
00000000000000000000000000000000000000000000000000000000000000000000000000000000
00000000000000000000000000000000000000000000000000000000000000000000000000000000
00000000000000000000000000000000000000000000000000000000000000000000000000000000
00000000000000000000000000000000000000000000000000000000000000000000000000000000
00000000000000000000000000000000000000000000000000000000000000000000000000000000
00000000000000000000000000000000000000000000000000000000000000000000000000000000
00000000000000000000000000000000000000000000000000000000000000000000000000000000
00000000000000000000000000000000000000000000000000000000000000000000000000000000
00000000000000000000000000000000000000000000000000000000000000000000000000000000
00000000000000000000000000000000000000000000000000000000000000000000000000000000
00000000000000000000000000000000000000000000000000000000000000000000000000000000
00000000000000000000000000000000000000000000000000000000000000000000000000000000
0000000000000000000000000000000000000000000000000000000000000000

TDMA 6 : 0 for correct bit, 1 for altered bit
00000000000000000000000000000000000000000000000000000000000000000000000000000000
00000000000000000000000000000000000000000000000000000000000000000000000000000000
00000000000000000000000000000000000000000000000000000000000000000000000000000000
00000000000000000000000000000000000000000000000000000000000000000000000000000000
00000000000000000000000000000000000000000000000000000000000000000000000000000000
00000000000000000000000000000000000000000000000000000000000000000000000000000000
00000000000000000000000000000000000000000000000000000000000000000000000000000000
00000000000000000000000000000000000000000000000000000000000000000000000000000000
00000000000000000000000000000000000000000000000000000000000000000000000000000000
00000000000000000000000000000000000000000000000000000000000000000000000000000000
00000000000000000000000000000000000000000000000000000000000000000000000000000000
00000000000000000000000000000000000000000000000000000000000000000000000000000000
00000000000000000000000000000000000000000000000000000000000000000000000000000000
00000000000000000000000000000000000000000000000000000000000000000000000000000000
0000000000000000000000000000000000000000000000000000000000000000

TDMA 7 : 0 for correct bit, 1 for altered bit
00000000000000000000000000000000000000000000000000000000000000000000000000000000
00000000000000000000000000000000000000000000000000000000000000000000000000000000
00000000000000000000000000000000000000000000000000000000000000000000000000000000
00000000000000000000000000000000000000000000000000000000000000000000000000000000
00000000000000000000000000000000000000000000000000000000000000000000000000000000
00000000000000000000000000000000000000000000000000000000000000000000000000000000
00000000000000000000000000000000000000000000000000000000000000000000000000000000
00000000000000000000000000000000000000000000000000000000000000000000000000000000
00000000000000000000000000000000000000000000000000000000000000000000000000000000
00000000000000000000000000000000000000000000000000000000000000000000000000000000
00000000000000000000000000000000000000000000000000000000000000000000000000000000
00000000000000000000000000000000000000000000000000000000000000000000000000000000
00000000000000000000000000000000000000000000000000000000000000000000000000000000
00000000000000000000000000000000000000000000000000000000000000000000000000000000
0000000000000000000000000000000000000000000000000000000000000000

TDMA 8 : 0 for correct bit, 1 for altered bit
00000000000000000000000000000000000000000000000000000000000000000000000000000000
00000000000000000000000000000000000000000000000000000000000000000000000000000000
00000000000000000000000000000000000000000000000000000000000000000000000000000000
00000000000000000000000000000000000000000000000000000000000000000000000000000000
00000000000000000000000000000000000000000000000000000000000000000000000000000000
00000000000000000000000000000000000000000000000000000000000000000000000000000000
00000000000000000000000000000000000000000000000000000000000000000000000000000000
00000000000000000000000000000000000000000000000000000000000000000000000000000000
00000000000000000000000000000000000000000000000000000000000000000000000000000000
00000000000000000000000000000000000000000000000000000000000000000000000000000000
00000000000000000000000000000000000000000000000000000000000000000000000000000000
00000000000000000000000000000000000000000000000000000000000000000000000000000000
00000000000000000000000000000000000000000000000000000000000000000000000000000000
00000000000000000000000000000000000000000000000000000000000000000000000000000000
0000000000000000000000000000000000000000000000000000000000000000

TDMA 9 : 0 for correct bit, 1 for altered bit
00000000000000000000000000000000000000000000000000000000000000000000000000000000
00000000000000000000000000000000000000000000000000000000000000000000000000000000
00000000000000000000000000000000000000000000000000000000000000000000000000000000
00000000000000000000000000000000000000000000000000000000000000000000000000000000
00000000000000000000000000000000000000000000000000000000000000000000000000000000
00000000000000000000000000000000000000000000000000000000000000000000000000000000
00000000000000000000000000000000000000000000000000000000000000000000000000000000
00000000000000000000000000000000000000000000000000000000000000000000000000000000
00000000000000000000000000000000000000000000000000000000000000000000000000000000
00000000000000000000000000000000000000000000000000000000000000000000000000000000
00000000000000000000000000000000000000000000000000000000000000000000000000000000
00000000000000000000000000000000000000000000000000000000000000000000000000000000
00000000000000000000000000000000000000000000000000000000000000000000000000000000
00000000000000000000000000000000000000000000000000000000000000000000000000000000
0000000000000000000000000000000000000000000000000000000000000000

TDMA 10 : 0 for correct bit, 1 for altered bit
00000000000000000000000000000000000000000000000000000000000000000000000000000000
00000000000000000000000000000000000000000000000000000000000000000000000000000000
00000000000000000000000000000000000000000000000000000000000000000000000000000000
00000000000000000000000000000000000000000000000000000000000000000000000000000000
00000000000000000000000000000000000000000000000000000000000000000000000000000000
00000000000000000000000000000000000000000000000000000000000000000000000000000000
00000000000000000000000000000000000000000000000000000000000000000000000000000000
00000000000000000000000000000000000000000000000000000000000000000000000000000000
00000000000000000000000000000000000000000000000000000000000000000000000000000000
00000000000000000000000000000000000000000000000000000000000000000000000000000000
00000000000000000000000000000000000000000000000000000000000000000000000000000000
00000000000000000000000000000000000000000000000000000000000000000000000000000000
00000000000000000000000000000000000000000000000000000000000000000000000000000000
00000000000000000000000000000000000000000000000000000000000000000000000000000000
0000000000000000000000000000000000000000000000000000000000000000

TDMA 11 : 0 for correct bit, 1 for altered bit
00000000000000000000000000000000000000000000000000000000000000000000000000000000
00000000000000000000000000000000000000000000000000000000000000000000000000000000
00000000000000000000000000000000000000000000000000000000000000000000000000000000
00000000000000000000000000000000000000000000000000000000000000000000000000000000
00000000000000000000000000000000000000000000000000000000000000000000000000000000
00000000000000000000000000000000000000000000000000000000000000000000000000000000
00000000000000000000000000000000000000000000000000000000000000000000000000000000
00000000000000000000000000000000000000000000000000000000000000000000000000000000
00000000000000000000000000000000000000000000000000000000000000000000000000000000
00000000000000000000000000000000000000000000000000000000000000000000000000000000
00000000000000000000000000000000000000000000000000000000000000000000000000000000
00000000000000000000000000000000000000000000000000000000000000000000000000000000
00000000000000000000000000000000000000000000000000000000000000000000000000000000
00000000000000000000000000000000000000000000000000000000000000000000000000000000
0000000000000000000000000000000000000000000000000000000000000000

TDMA 12 : 0 for correct bit, 1 for altered bit
00000000000000000000000000000000000000000000000000000000000000000000000000000000
00000000000000000000000000000000000000000000000000000000000000000000000000000000
00000000000000000000000000000000000000000000000000000000000000000000000000000000
00000000000000000000000000000000000000000000000000000000000000000000000000000000
00000000000000000000000000000000000000000000000000000000000000000000000000000000
00000000000000000000000000000000000000000000000000000000000000000000000000000000
00000000000000000000000000000000000000000000000000000000000000000000000000000000
00000000000000000000000000000000000000000000000000000000000000000000000000000000
00000000000000000000000000000000000000000000000000000000000000000000000000000000
00000000000000000000000000000000000000000000000000000000000000000000000000000000
00000000000000000000000000000000000000000000000000000000000000000000000000000000
00000000000000000000000000000000000000000000000000000000000000000000000000000000
00000000000000000000000000000000000000000000000000000000000000000000000000000000
00000000000000000000000000000000000000000000000000000000000000000000000000000000
0000000000000000000000000000000000000000000000000000000000000000

TDMA 13 : 0 for correct bit, 1 for altered bit
00000000000000000000000000000000000000000000000000000000000000000000000000000000
00000000000000000000000000000000000000000000000000000000000000000000000000000000
00000000000000000000000000000000000000000000000000000000000000000000000000000000
00000000000000000000000000000000000000000000000000000000000000000000000000000000
00000000000000000000000000000000000000000000000000000000000000000000000000000000
00000000000000000000000000000000000000000000000000000000000000000000000000000000
00000000000000000000000000000000000000000000000000000000000000000000000000000000
00000000000000000000000000000000000000000000000000000000000000000000000000000000
00000000000000000000000000000000000000000000000000000000000000000000000000000000
00000000000000000000000000000000000000000000000000000000000000000000000000000000
00000000000000000000000000000000000000000000000000000000000000000000000000000000
00000000000000000000000000000000000000000000000000000000000000000000000000000000
00000000000000000000000000000000000000000000000000000000000000000000000000000000
00000000000000000000000000000000000000000000000000000000000000000000000000000000
0000000000000000000000000000000000000000000000000000000000000000

TDMA 14 : 0 for correct bit, 1 for altered bit
00000000000000000000000000000000000000000000000000000000000000000000000000000000
00000000000000000000000000000000000000000000000000000000000000000000000000000000
00000000000000000000000000000000000000000000000000000000000000000000000000000000
00000000000000000000000000000000000000000000000000000000000000000000000000000000
00000000000000000000000000000000000000000000000000000000000000000000000000000000
00000000000000000000000000000000000000000000000000000000000000000000000000000000
00000000000000000000000000000000000000000000000000000000000000000000000000000000
00000000000000000000000000000000000000000000000000000000000000000000000000000000
00000000000000000000000000000000000000000000000000000000000000000000000000000000
00000000000000000000000000000000000000000000000000000000000000000000000000000000
00000000000000000000000000000000000000000000000000000000000000000000000000000000
00000000000000000000000000000000000000000000000000000000000000000000000000000000
00000000000000000000000000000000000000000000000000000000000000000000000000000000
00000000000000000000000000000000000000000000000000000000000000000000000000000000
0000000000000000000000000000000000000000000000000000000000000000

TDMA 15 : 0 for correct bit, 1 for altered bit
00000000000000000000000000000000000000000000000000000000000000000000000000000000
00000000000000000000000000000000000000000000000000000000000000000000000000000000
00000000000000000000000000000000000000000000000000000000000000000000000000000000
00000000000000000000000000000000000000000000000000000000000000000000000000000000
00000000000000000000000000000000000000000000000000000000000000000000000000000000
00000000000000000000000000000000000000000000000000000000000000000000000000000000
00000000000000000000000000000000000000000000000000000000000000000000000000000000
00000000000000000000000000000000000000000000000000000000000111111111111111111111
11111111111111111111111111111111111111111111111111111111111111111111111111111111
11111111111111111111111111111111111111111111111111111111111111111111111111111111
11111111111111111111111111111111111111111111111111111111111111111111111111111111
11111111111111111111111111111111111111111111111111111111111111111111111111111111
11111111111111111111111111111111111111111111111111111111111111111111111111111111
11111111111111111111111111111111111111111111111111111111111111111111111111111111
1111111111111111111111111111111111111111111111111111111111111111

TDMA 16 : 0 for correct bit, 1 for altered bit
11111111111111111111111111111111111111111111111111111111111111111111111111111111
11111111111111111111111111111111111111111111111111111111111111111111111111111111
11111111111111111111111111111111111111111111111111111111111111111111111111111111
11111111111111111111111111111111111111111111111111111111111111111111111111111111
11111111111111111111111111111111111111111111111111111111111111111111111111111111
11111111111111111111111111111111111111111111111111111111111111111111111111111111
11111111111111111111111111111111111111111111111111111111111111111111111111111111
11111111111111111111111111111111111111111111111111111111111111111111111111111111
11111111111111111111111111111111111111111111111111111111111111111111111111111111
11111111111111111111111111111111111111111111111111111111111111111111111111111111
11111111111111111111111111111111111111111111111111111111111111111111111111111111
11111111111111111111111111111111111111111111111111111111111111111111111111111111
11111111111111111111111111111111111111111111111111111111111111111111111111111111
11111111111111111111111111111111111111111111111111111111111111111111111111111111
1111111111111111111111111111111111111111111111111111111111111111

TDMA 17 : 0 for correct bit, 1 for altered bit
11111111111111111111111111111111111111111111111111111111111111111111111111111111
11111111111111111111111111111111111111111111111111111111111111111111111111111111
11111111111111111111111111111111111111111111111111111111111111111111111111111111
11111111111111111111111111111111111111111111111111111111111111111111111111111111
11111111111111111111111111111111111111111111111111111111111111111111111111111111
11111111111111111111111111111111111111111111111111111111111111111111111111111111
11111111111111111111111111111111111111111111111111111111111111111111111111111111
11111111111111111111111111111111111111111111111111111111111111111111111111111111
11111111111111111111111111111111111111111111111111111111111111111111111111111111
11111111111111111111111111111111111111111111111111111111111111111111111111111111
11111111111111111111111111111111111111111111111111111111111111111111111111111111
11111111111111111111111111111111111111111111111111111111111111111111111111111111
11111111111111111111111111111111111111111111111111111111111111111111111111111111
11111111111111111111111111111111111111111111111111111111111111111111111111111111
1111111111111111111111111111111111111111111111111111111111111111

TDMA 18 : 0 for correct bit, 1 for altered bit
11111111111111111111111111111111111111111111111111111111111111111111111111111111
11111111111111111111111111111111111111111111111111111111111111111111111111111111
11111111111111111111111111111111111111111111111111111111111111111111111111111111
11111111111111111111111111111111111111111111111111111111111111111111111111111111
11111111111111111111111111111111111111111111111111111111111111111111111111111111
11111111111111111111111111111111111111111111111111111111111111111111111111111111
11111111111111111111111111111111111111111111111111111111111111111111111111111111
11111111111111111111111111111111111111111111111111111111111111111111111111111111
11111111111111111111111111111111111111111111111111111111111111111111111111111111
11111111111111111111111111111111111111111111111111111111111111111111111111111111
11111111111111111111111111111111111111111111111111111111111111111111111111111111
11111111111111111111111111111111111111111111111111111111111111111111111111111111
11111111111111111111111111111111111111111111111111111111111111111111111111111111
11111111111111111111111111111111111111111111111111111111111111111111111111111111
1111111111111111111111111111111111111111111111111111111111111111

TDMA 19 : 0 for correct bit, 1 for altered bit
11111111111111111111111111111111111111111111111111111111111111111111111111111111
11111111111111111111111111111111111111111111111111111111111111111111111111111111
11111111111111111111111111111111111111111111111111111111111111111111111111111111
11111111111111111111111111111111111111111111111111111111111111111111111111111111
11111111111111111111111111111111111111111111111111111111111111111111111111111111
11111111111111111111111111111111111111111111111111111111111111111111111111111111
11111111111111111111111111111111111111111111111111111111111111111111111111111111
11111111111111111111111111111111111111111111111111111111111111111111111111111111
11111111111111111111111111111111111111111111111111111111111111111111111111111111
11111111111111111111111111111111111111111111111111111111111111111111111111111111
11111111111111111111111111111111111111111111111111111111111111111111111111111111
11111111111111111111111111111111111111111111111111111111111111111111111111111111
11111111111111111111111111111111111111111111111111111111111111111111111111111111
11111111111111111111111111111111111111111111111111111111111111111111111111111111
1111111111111111111111111111111111111111111111111111111111111111

TDMA 20 : 0 for correct bit, 1 for altered bit
11111111111111111111111111111111111111111111111111111111111111111111111111111111
11111111111111111111111111111111111111111111111111111111111111111111111111111111
11111111111111111111111111111111111111111111111111111111111111111111111111111111
11111111111111111111111111111111111111111111111111111111111111111111111111111111
11111111111111111111111111111111111111111111111111111111111111111111111111111111
11111111111111111111111111111111111111111111111111111111111111111111111111111111
11111111111111111111111111111111111111111111111111111111111111111111111111111111
11111111111111111111111111111111111111111111111111111111111000000000000000000000
00000000000000000000000000000000000000000000000000000000000000000000000000000000
00000000000000000000000000000000000000000000000000000000000000000000000000000000
00000000000000000000000000000000000000000000000000000000000000000000000000000000
00000000000000000000000000000000000000000000000000000000000000000000000000000000
00000000000000000000000000000000000000000000000000000000000000000000000000000000
00000000000000000000000000000000000000000000000000000000000000000000000000000000
0000000000000000000000000000000000000000000000000000000000000000

################################################################################

RECEIVED BIN SEQ 1: 456 bits
01001010011110001010001000101010111101101101010001100110010000101111110111001111
00110101101000011000101010001000000110110010000010110111000101010110000101110110
01000001100110101011001110001011001111001000111100011111000010011100010010100100
00001001100011011011100101010011110110010111100011001011111110001100111010101010
10000000100101110111101111100011001001111000100111011011001110000111100110101001
10110001001111100000111011000101111110000001100000101110


RECEIVED BIN SEQ 2: 456 bits
10001001100011111100000100101010100001111010110101100001100100011010011101101000
11100110011001101101111110011001100111110001001011001000110001101000000110100011
01100100110100100010100010110010011100100000110011110101000000011111010101011000
01011100101000110011011100001001101100001001100011000100011111001001110001001001
01011111011000101111001000010010001000111110001100010001101110010111101100000011
10100100001011000110100011001011100011101111111000111010


RECEIVED BIN SEQ 3: 456 bits
01011110001110110111011101001100011100110000111101010011010100011010101100111010
10011101100101000110100110110011111010010011010111011100011110100111010010111011
00011010001100000110111110111101001100010000111100111100100110110101000011101010
01001110110000111000100011100110100110000001000010101010011001000011101000010111
11011010001001100110010001011010100001011001000011101011001001000110010110100001
11100110010010011000000110000110110010000011000011101011


RECEIVED BIN SEQ 4: 456 bits
10000110001010101010011000010000001111001101100010100000110110010001010110111111
11110111101110101110110110000010010110110011100101011101001000101010110000001001
11010010101010000101010001011110100101011111001011000000101101101101000011010101
00011010110011101001110110011001111001000010101110101111110001011011000110000100
00011110111100001011001111110110011001100011001011011111000101110010111010100000
00100110110000101010101100100110100000100000001001011110

################################################################################ 

SUCCESS!: Transmission of channel sequence 1
SUCCESS!: Transmission of channel sequence 2
FAIL!: Transmission of channel sequence 3 : error 12.50 %
FAIL!: Transmission of channel sequence 4 : error 62.50 %
