
INPUT BIN SEQ 1: 456 bits
01110011100010111100101011111010100010110100011001001011011011100110111110100010
11100011000100000101000101100011101110111111101111100010011101000101111000011011
01101001111001011010001101100111010100011100100011010100110001110000100001001010
10111010111111101001111110110001101111110100101010111100100100010011111101011000
01010001001001001001011000110110110000110011110101111100010000111010011100101100
01011010111000111001111000101010011000001001111110010100

BIT INTERLEAVED BIN SEQ 1: 456 bits
1 (57b): 011110000110001110000110011100111110110000101000100110011
2 (57b): 101101111010110111101101111101010001000110001011001100100
3 (57b): 100100011110011111001111000000110110101001010110110101100
4 (57b): 100100000001101101110000101000111110111110110110001010011
5 (57b): 011110111000001100111000010011111011101100000110011011010
6 (57b): 000001011000000001100101001100011010101001110110110010011
7 (57b): 111111111110011110110011000101111011001000111001101111010
8 (57b): 110010101010111100011111100100001110011010001101100100010

INPUT BIN SEQ 2: 456 bits
00011111010010001010110111101100101110010111100111010111110000100101001001010010
00110100101001010000001100101100001000010001010010100110101011101100101011010101
00111010111110110000100010111001000010010110010111010111010011110100110010100000
01111111011110110010000100001010010101010100000000100010101010110000011110000000
10000110010000101111000110100100000101010010110100001011110011011110101101011011
00011101001001010101111110100111000101110011001010000010

BIT INTERLEAVED BIN SEQ 2: 456 bits
1 (57b): 001110110001000011110101001001000000010110110001100001001
2 (57b): 010101111100000000110100011110110011000001100001110010000
3 (57b): 001111000011011011001101010001111000110000110100100101010
4 (57b): 100011101110000100011101001000110010000000101000011010110
5 (57b): 111111000000010001101111100110110100010000000111111010000
6 (57b): 101100100011010111010000011110100010001010011101001111100
7 (57b): 100000111100100011101100001100110100111011000010110011111
8 (57b): 101011100001101000010101111100111010011000101111111111100

INPUT BIN SEQ 3: 456 bits
10010001111010110000100000011010100110010110001000011110111111110111011011011100
00011101011000011010011111000010101000010100111100111100000100001111111001110011
00000100111011001010010010100101001001100100011111000010100000111001101100000011
11000100111110111011111000001101111011001010011010100110101000000100000101101110
01101011111001001101011101011000100010010110011000001011001011000000010101001010
01010011111001010111011111101101010000011101011010111111

BIT INTERLEAVED BIN SEQ 3: 456 bits
1 (57b): 110010010100111000100111001110111011110001101000000101011
2 (57b): 010001011101010100110100011000110010001111110100011111110
3 (57b): 010001011001101010110111100000011011110111000101000111001
4 (57b): 100110111110000011110000000010011000000000110000001010011
5 (57b): 011110110110000110100100000010011110000110011011010001001
6 (57b): 000000111110100110101111110000101111100101100101100111011
7 (57b): 010101111000110100110000111111011001100110100110011010011
8 (57b): 110010010011101100010001010111010100001010101010101111101

INPUT BIN SEQ 4: 456 bits
11111011001110111001100000010101010011101101010011110011011000011110011011111001
10010100111010100100110111111111100111000100011010100010101001000101001111100100
10110111000111001010111010010001111101111000010001101010110111010011110101000101
00010001011000001111111010101111100010001101000001101010100110010111010110111011
10010000111101111010001101100110101010111111011001111111100010010100000001011001
10110010110011100100011101100011011100001111110101101110

BIT INTERLEAVED BIN SEQ 4: 456 bits
1 (57b): 101001101111011011011011110100001111010111101101001100010
2 (57b): 100011111101110100110000101101011001101001010110110111111
3 (57b): 110000111101010011011010101010011100101101111110001001111
4 (57b): 111101100110011000101101100110101001011111000110011000110
5 (57b): 111010000101111000000110001110001110110100001011010100011
6 (57b): 000111001010111101011110110111001100001001010110000110011
7 (57b): 110010101001010110101010101000001100100101111110001111001
8 (57b): 110100110100110000101001100111100100011101101011010011010
################################################################################

RECEIVED BIN SEQ 1: 456 bits
01110011100010111100101011111010100010110100011001001011011011100110111110100010
11100011000100000101000101100011101110111111101111100010011101000101111000011011
01101001111001011010001101100111010100011100100011010100110001110000100001001010
10111010111111101001111110110001101111110100101010111100100100010011111101011000
01010001001001001001011000110110110000110011110101111100010000111010011100101100
01011010111000111001111000101010011000001001111110010100


RECEIVED BIN SEQ 2: 456 bits
00011111010010001010110111101100101110010111100111010111110000100101001001010010
00110100101001010000001100101100001000010001010010100110101011101100101011010101
00111010111110110000100010111001000010010110010111010111010011110100110010100000
01111111011110110010000100001010010101010100000000100010101010110000011110000000
10000110010000101111000110100100000101010010110100001011110011011110101101011011
00011101001001010101111110100111000101110011001010000010


RECEIVED BIN SEQ 3: 456 bits
10010001111010110000100000011010100110010110001000011110111111110111011011011100
00011101011000011010011111000010101000010100111100111100000100001111111001110011
00000100111011001010010010100101001001100100011111000010100000111001101100000011
11000100111110111011111000001101111011001010011010100110101000000100000101101110
01101011111001001101011101011000100010010110011000001011001011000000010101001010
01010011111001010111011111101101010000011101011010111111


RECEIVED BIN SEQ 4: 456 bits
11111011001110111001100000010101010011101101010011110011011000011110011011111001
10010100111010100100110111111111100111000100011010100010101001000101001111100100
10110111000111001010111010010001111101111000010001101010110111010011110101000101
00010001011000001111111010101111100010001101000001101010100110010111010110111011
10010000111101111010001101100110101010111111011001111111100010010100000001011001
10110010110011100100011101100011011100001111110101101110

################################################################################ 

SUCCESS!: Transmission of channel sequence 1
SUCCESS!: Transmission of channel sequence 2
SUCCESS!: Transmission of channel sequence 3
SUCCESS!: Transmission of channel sequence 4
